"Dstat 0.7.2 CSV output"
"Author:","Dag Wieers <dag@wieers.com>",,,,"URL:","http://dag.wieers.com/home-made/dstat/"
"Host:","ip-172-31-8-207.us-west-2.compute.internal",,,,"User:","hadoop"
"Cmdline:","dstat -a --output ip-172-31-8-207.us-west-2.compute.internal.csv",,,,"Date:","10 May 2014 17:57:26 UTC"

"total cpu usage",,,,,,"dsk/total",,"net/total",,"paging",,"system",
"usr","sys","idl","wai","hiq","siq","read","writ","recv","send","in","out","int","csw"
1.899,0.712,96.136,1.183,0.0,0.071,164639.223,1149349.949,0.0,0.0,0.0,0.0,520.530,534.827
3.046,0.508,96.447,0.0,0.0,0.0,0.0,0.0,318.0,1867.0,0.0,0.0,479.0,847.0
0.503,0.503,98.995,0.0,0.0,0.0,0.0,9216.0,197.0,829.0,0.0,0.0,391.0,592.0
0.508,0.0,99.492,0.0,0.0,0.0,0.0,0.0,19676.0,3932.0,0.0,0.0,366.0,599.0
0.503,0.0,99.497,0.0,0.0,0.0,0.0,798720.0,273.0,919.0,0.0,0.0,443.0,567.0
0.503,0.0,99.497,0.0,0.0,0.0,0.0,0.0,370.0,1489.0,0.0,0.0,332.0,583.0
0.0,0.0,100.0,0.0,0.0,0.0,0.0,4096.0,364.0,1443.0,0.0,0.0,344.0,584.0
0.0,0.503,99.497,0.0,0.0,0.0,0.0,0.0,370.0,1489.0,0.0,0.0,329.0,576.0
0.0,0.0,100.0,0.0,0.0,0.0,0.0,43520.0,225.0,871.0,0.0,0.0,334.0,556.0
0.0,0.0,100.0,0.0,0.0,0.0,0.0,49152.0,409.0,1911.0,0.0,0.0,342.0,576.0
2.020,0.0,97.980,0.0,0.0,0.0,0.0,8192.0,446.0,1409.0,0.0,0.0,409.0,600.0
0.0,0.0,100.0,0.0,0.0,0.0,0.0,0.0,318.0,1387.0,0.0,0.0,339.0,546.0
0.503,0.503,98.995,0.0,0.0,0.0,0.0,4096.0,288.0,1353.0,0.0,0.0,396.0,594.0
0.0,0.0,100.0,0.0,0.0,0.0,0.0,0.0,318.0,1387.0,0.0,0.0,324.0,572.0
0.0,0.0,100.0,0.0,0.0,0.0,0.0,4096.0,249.0,931.0,0.0,0.0,325.0,557.0
3.030,0.0,96.970,0.0,0.0,0.0,0.0,96256.0,658.0,2491.0,0.0,0.0,495.0,748.0
0.503,0.0,99.497,0.0,0.0,0.0,0.0,4096.0,249.0,931.0,0.0,0.0,330.0,567.0
0.0,0.505,99.495,0.0,0.0,0.0,0.0,0.0,370.0,1489.0,0.0,0.0,332.0,582.0
0.503,0.0,99.497,0.0,0.0,0.0,0.0,4096.0,340.0,1455.0,0.0,0.0,357.0,575.0
0.0,0.0,100.0,0.0,0.0,0.0,0.0,0.0,318.0,1387.0,0.0,0.0,343.0,561.0
0.0,0.503,99.497,0.0,0.0,0.0,0.0,8192.0,249.0,961.0,0.0,0.0,348.0,544.0
0.503,0.0,99.497,0.0,0.0,0.0,0.0,16384.0,461.0,2013.0,0.0,0.0,350.0,590.0
0.0,1.005,98.995,0.0,0.0,0.0,0.0,4096.0,197.0,829.0,0.0,0.0,382.0,584.0
0.0,0.0,100.0,0.0,0.0,0.0,0.0,0.0,318.0,1387.0,0.0,0.0,318.0,567.0
1.005,0.0,98.995,0.0,0.0,0.0,0.0,4096.0,288.0,1353.0,0.0,0.0,432.0,669.0
0.0,0.0,100.0,0.0,0.0,0.0,0.0,0.0,370.0,1519.0,0.0,0.0,324.0,573.0
0.0,0.0,100.0,0.0,0.0,0.0,0.0,4096.0,197.0,829.0,0.0,0.0,322.0,562.0
0.500,0.0,99.500,0.0,0.0,0.0,0.0,12288.0,461.0,2013.0,0.0,0.0,345.0,601.0
0.0,0.0,100.0,0.0,0.0,0.0,0.0,4096.0,197.0,829.0,0.0,0.0,331.0,567.0
0.0,0.0,100.0,0.0,0.0,0.0,0.0,98304.0,370.0,1489.0,0.0,0.0,326.0,575.0
0.0,0.0,100.0,0.0,0.0,0.0,0.0,0.0,288.0,1353.0,0.0,0.0,346.0,579.0
0.0,0.0,100.0,0.0,0.0,0.0,0.0,4096.0,318.0,1387.0,0.0,0.0,316.0,570.0
0.498,0.995,98.507,0.0,0.0,0.0,0.0,7168.0,197.0,829.0,0.0,0.0,389.0,594.0
0.0,0.0,100.0,0.0,0.0,0.0,0.0,20480.0,409.0,1911.0,0.0,0.0,332.0,592.0
0.503,0.0,99.497,0.0,0.0,0.0,0.0,45056.0,197.0,829.0,0.0,0.0,330.0,566.0
0.0,0.0,100.0,0.0,0.0,0.0,0.0,12288.0,370.0,1489.0,0.0,0.0,318.0,585.0
0.503,0.0,99.497,0.0,0.0,0.0,0.0,4096.0,288.0,1353.0,0.0,0.0,352.0,579.0
1.493,0.498,96.517,0.995,0.0,0.498,28672.0,0.0,24803.0,679587.0,0.0,0.0,563.0,671.0
0.508,0.508,98.477,0.508,0.0,0.0,4198400.0,4096.0,17360.0,492571.0,0.0,0.0,514.0,633.0
0.0,0.0,100.0,0.0,0.0,0.0,0.0,32768.0,409.0,1927.0,0.0,0.0,337.0,596.0
6.030,0.0,93.970,0.0,0.0,0.0,0.0,4096.0,40907.0,2180.0,0.0,0.0,389.0,589.0
75.377,5.528,18.593,0.503,0.0,0.0,118784.0,0.0,2060.0,5382.0,0.0,0.0,951.0,969.0
80.203,7.614,12.183,0.0,0.0,0.0,0.0,4096.0,19271.0,459030.0,0.0,0.0,1445.0,1722.0
85.427,8.543,5.528,0.0,0.0,0.503,8396800.0,0.0,624655.0,567722.0,0.0,0.0,1846.0,2031.0
88.500,8.500,0.500,0.0,0.0,2.500,4194304.0,4096.0,11028986.0,15865009.0,0.0,0.0,6188.0,2255.0
87.940,6.533,0.503,0.0,0.0,5.025,6729728.0,97792.0,18978096.0,29191432.0,0.0,0.0,9130.0,5207.0
83.500,10.500,0.0,0.0,0.0,6.0,7340032.0,4096.0,20842411.0,29079872.0,0.0,0.0,9546.0,6237.0
86.500,8.500,1.0,0.0,0.0,4.0,7172096.0,0.0,27635335.0,27804233.0,0.0,0.0,10720.0,5797.0
87.500,9.0,0.500,0.0,0.0,3.0,6291456.0,4096.0,11961740.0,23929263.0,0.0,0.0,7491.0,6305.0
89.500,5.500,0.0,0.0,0.0,5.0,4194304.0,0.0,13854114.0,28400021.0,0.0,0.0,8370.0,3435.0
93.467,3.518,0.0,0.0,0.0,3.015,2097152.0,4096.0,11169040.0,14647498.0,0.0,0.0,5884.0,2077.0
94.527,3.980,0.995,0.0,0.0,0.498,0.0,24576.0,161389.0,562820.0,0.0,0.0,1191.0,1803.0
89.447,6.533,0.0,0.0,0.0,4.020,6291456.0,4096.0,17751559.0,27391656.0,0.0,0.0,8089.0,2865.0
88.442,6.030,0.0,0.0,0.0,5.528,16777216.0,0.0,17256521.0,25080009.0,0.0,0.0,9442.0,3032.0
92.537,6.468,0.498,0.0,0.0,0.498,8388608.0,4096.0,1736784.0,10595872.0,0.0,0.0,2997.0,5208.0
88.500,7.500,0.0,0.0,0.0,4.0,10485760.0,0.0,23295356.0,27130871.0,0.0,0.0,10419.0,3364.0
91.500,4.0,0.500,0.0,0.0,4.0,6291456.0,45056.0,9949289.0,12272404.0,0.0,0.0,5799.0,3526.0
88.0,8.0,0.0,0.0,0.0,4.0,13078528.0,4096.0,18351813.0,24357038.0,0.0,0.0,9020.0,3800.0
88.060,6.965,0.498,0.0,0.0,4.478,14184448.0,0.0,18994863.0,19744586.0,0.0,0.0,9755.0,4018.0
91.457,6.030,0.0,0.0,0.0,2.513,6291456.0,75264000.0,10075146.0,12606033.0,0.0,0.0,6974.0,3713.0
85.149,7.921,0.495,0.0,0.0,6.436,13971456.0,4096.0,19891392.0,34225730.0,0.0,0.0,10668.0,3825.0
91.919,7.071,0.0,0.0,0.0,1.010,2801664.0,110592.0,5121768.0,5377099.0,0.0,0.0,3995.0,4578.0
88.0,7.0,0.0,0.0,0.0,5.0,16777216.0,0.0,21790803.0,29614729.0,0.0,0.0,9381.0,3795.0
88.500,7.0,1.0,0.0,0.0,3.500,12582912.0,9216.0,14853966.0,20259300.0,0.0,0.0,7404.0,4101.0
88.500,8.500,0.0,0.0,0.0,3.0,8388608.0,56418304.0,15001287.0,12054985.0,0.0,0.0,7113.0,3959.0
89.394,6.061,0.0,0.0,0.0,4.545,14680064.0,4096.0,20221646.0,31117104.0,0.0,0.0,9049.0,3671.0
92.040,6.468,0.498,0.0,0.0,0.995,6291456.0,0.0,8037042.0,5860948.0,0.0,0.0,3759.0,4932.0
89.950,6.030,0.0,0.0,0.0,4.020,18874368.0,86016.0,15171918.0,35421670.0,0.0,0.0,8304.0,3901.0
90.500,7.0,0.500,0.0,0.0,2.0,8388608.0,44032.0,5812843.0,21519369.0,0.0,0.0,5597.0,4732.0
93.500,5.0,0.500,0.0,0.0,1.0,1212416.0,75247616.0,1638663.0,5874857.0,0.0,0.0,4663.0,2508.0
92.929,5.556,1.515,0.0,0.0,0.0,0.0,8192.0,498.0,1557.0,0.0,0.0,1445.0,2948.0
97.0,2.500,0.500,0.0,0.0,0.0,0.0,4096.0,318.0,1387.0,0.0,0.0,1897.0,4532.0
99.0,1.0,0.0,0.0,0.0,0.0,0.0,0.0,288.0,1353.0,0.0,0.0,1471.0,3270.0
99.500,0.500,0.0,0.0,0.0,0.0,0.0,81920.0,470.0,1567.0,0.0,0.0,777.0,672.0
97.500,2.0,0.500,0.0,0.0,0.0,0.0,94040064.0,197.0,829.0,0.0,0.0,2863.0,765.0
61.111,3.535,34.343,0.0,0.0,1.010,0.0,71680.0,5211484.0,2089620.0,0.0,0.0,3482.0,2007.0
86.935,9.045,0.503,0.0,0.0,3.518,0.0,0.0,15050937.0,17493714.0,0.0,0.0,8825.0,4712.0
90.050,9.453,0.498,0.0,0.0,0.0,0.0,4096.0,318.0,1387.0,0.0,0.0,2184.0,6186.0
98.492,1.508,0.0,0.0,0.0,0.0,0.0,0.0,288.0,1353.0,0.0,0.0,862.0,1398.0
98.0,2.0,0.0,0.0,0.0,0.0,0.0,122753024.0,318.0,1387.0,0.0,0.0,3495.0,778.0
97.015,0.995,0.498,0.0,0.0,1.493,0.0,0.0,5688359.0,302677.0,0.0,0.0,2532.0,1416.0
90.452,6.533,0.0,0.0,0.0,3.015,0.0,4096.0,18328175.0,13743551.0,0.0,0.0,8735.0,3062.0
92.537,2.985,0.498,0.0,0.0,3.980,0.0,0.0,8004521.0,16183423.0,0.0,0.0,5922.0,2528.0
95.477,4.523,0.0,0.0,0.0,0.0,0.0,4096.0,10354.0,726419.0,0.0,0.0,868.0,4401.0
91.0,9.0,0.0,0.0,0.0,0.0,0.0,11911168.0,288.0,1353.0,0.0,0.0,3018.0,8225.0
98.492,1.005,0.0,0.503,0.0,0.0,0.0,101740544.0,370.0,1519.0,0.0,0.0,3010.0,792.0
100.0,0.0,0.0,0.0,0.0,0.0,0.0,0.0,145.0,697.0,0.0,0.0,727.0,608.0
97.015,1.493,0.0,0.0,0.0,1.493,0.0,4096.0,6339424.0,529149.0,0.0,0.0,3469.0,1680.0
89.0,7.0,1.0,0.0,0.0,3.0,0.0,0.0,13581458.0,11460979.0,0.0,0.0,7606.0,3625.0
88.945,6.030,0.0,0.0,0.0,5.025,0.0,4096.0,14696215.0,15860209.0,0.0,0.0,8222.0,3237.0
97.0,2.500,0.0,0.0,0.0,0.500,0.0,45056.0,815115.0,6508491.0,0.0,0.0,2520.0,3293.0
96.985,3.015,0.0,0.0,0.0,0.0,0.0,4096.0,197.0,829.0,0.0,0.0,1275.0,2985.0
95.025,4.478,0.498,0.0,0.0,0.0,0.0,0.0,318.0,1387.0,0.0,0.0,1249.0,2947.0
100.0,0.0,0.0,0.0,0.0,0.0,0.0,7168.0,288.0,1353.0,0.0,0.0,766.0,651.0
99.005,0.498,0.498,0.0,0.0,0.0,0.0,0.0,136478.0,4951.0,0.0,0.0,819.0,671.0
93.0,3.0,0.0,0.0,0.0,4.0,0.0,16384.0,17297965.0,5280391.0,0.0,0.0,7566.0,2903.0
87.065,7.463,0.498,0.0,0.0,4.975,0.0,36864.0,16034903.0,14267203.0,0.0,0.0,8657.0,3093.0
94.975,3.518,0.0,0.0,0.0,1.508,0.0,4096.0,4642017.0,17004235.0,0.0,0.0,5243.0,2341.0
98.0,1.500,0.500,0.0,0.0,0.0,0.0,0.0,10926.0,561735.0,0.0,0.0,946.0,2616.0
95.522,3.483,0.995,0.0,0.0,0.0,0.0,4096.0,316.0,1395.0,0.0,0.0,1229.0,2503.0
96.020,2.985,0.0,0.0,0.0,0.995,0.0,98070528.0,4935156.0,103687.0,0.0,0.0,4607.0,1323.0
89.447,4.523,0.503,0.0,0.0,5.528,0.0,4096.0,19346837.0,9233913.0,0.0,0.0,8687.0,3125.0
91.960,6.533,0.503,0.0,0.0,1.005,0.0,65536.0,1247113.0,15781035.0,0.0,0.0,3704.0,1849.0
94.527,4.975,0.498,0.0,0.0,0.0,0.0,4096.0,1185.0,53449.0,0.0,0.0,939.0,1051.0
51.515,3.030,45.455,0.0,0.0,0.0,0.0,0.0,8941.0,6018.0,0.0,0.0,1377.0,3688.0
96.500,2.500,1.0,0.0,0.0,0.0,0.0,91457024.0,639.0,1996.0,0.0,0.0,2880.0,3077.0
92.462,4.020,3.518,0.0,0.0,0.0,0.0,0.0,2360.0,5501.0,0.0,0.0,1086.0,6917.0
97.990,2.010,0.0,0.0,0.0,0.0,0.0,4096.0,301.0,1573.0,0.0,0.0,2988.0,7146.0
99.0,0.500,0.500,0.0,0.0,0.0,0.0,143360.0,409.0,1911.0,0.0,0.0,781.0,661.0
100.0,0.0,0.0,0.0,0.0,0.0,0.0,4096.0,197.0,829.0,0.0,0.0,757.0,633.0
93.532,3.483,0.498,0.0,0.0,2.488,0.0,0.0,8389802.0,4916401.0,0.0,0.0,4490.0,1783.0
90.452,7.035,0.0,0.0,0.0,2.513,0.0,4096.0,11924336.0,14710355.0,0.0,0.0,7740.0,6139.0
96.020,3.980,0.0,0.0,0.0,0.0,0.0,0.0,318.0,1387.0,0.0,0.0,1760.0,3616.0
100.0,0.0,0.0,0.0,0.0,0.0,0.0,4096.0,197.0,829.0,0.0,0.0,755.0,639.0
98.500,0.0,1.0,0.0,0.0,0.500,0.0,20480.0,763001.0,20325.0,0.0,0.0,1049.0,745.0
90.0,6.0,0.0,0.0,0.0,4.0,0.0,4096.0,20261497.0,11021265.0,0.0,0.0,9371.0,3141.0
92.462,4.523,0.0,0.0,0.0,3.015,0.0,0.0,11034274.0,15723375.0,0.0,0.0,7261.0,2793.0
97.0,2.500,0.500,0.0,0.0,0.0,0.0,4096.0,80524.0,4221395.0,0.0,0.0,1493.0,4022.0
99.0,1.0,0.0,0.0,0.0,0.0,0.0,0.0,318.0,1387.0,0.0,0.0,770.0,2460.0
99.500,0.0,0.500,0.0,0.0,0.0,0.0,4096.0,197.0,829.0,0.0,0.0,754.0,634.0
99.497,0.503,0.0,0.0,0.0,0.0,0.0,16384.0,409.0,1911.0,0.0,0.0,779.0,663.0
92.500,4.0,0.0,0.0,0.0,3.500,0.0,4096.0,12120599.0,3093711.0,0.0,0.0,5845.0,3061.0
89.500,5.500,0.500,0.0,0.0,4.500,0.0,0.0,19075536.0,13362395.0,0.0,0.0,9413.0,3258.0
94.0,4.0,0.500,0.0,0.0,1.500,0.0,9216.0,4252047.0,11918512.0,0.0,0.0,4210.0,1744.0
98.010,0.995,0.0,0.0,0.0,0.995,0.0,0.0,114978.0,5970419.0,0.0,0.0,1841.0,1042.0
99.495,0.0,0.505,0.0,0.0,0.0,0.0,4096.0,104.0,763.0,0.0,0.0,766.0,1446.0
98.507,0.995,0.498,0.0,0.0,0.0,0.0,49152.0,721.0,2034.0,0.0,0.0,794.0,691.0
98.492,0.0,1.508,0.0,0.0,0.0,0.0,4096.0,1021397.0,25381.0,0.0,0.0,1225.0,893.0
91.542,4.478,0.498,0.0,0.0,3.483,0.0,39424.0,20618924.0,6343123.0,0.0,0.0,8501.0,3234.0
94.0,3.0,0.0,0.0,0.0,3.0,0.0,4096.0,12191154.0,9908285.0,0.0,0.0,6764.0,2322.0
95.0,2.500,0.500,0.0,0.0,2.0,0.0,73728.0,4187529.0,11395689.0,0.0,0.0,4346.0,1833.0
97.0,1.500,0.0,0.0,0.0,1.500,0.0,4096.0,181961.0,9495997.0,0.0,0.0,2457.0,1485.0
98.010,1.493,0.498,0.0,0.0,0.0,0.0,32768.0,409.0,1911.0,0.0,0.0,1015.0,1727.0
91.414,4.545,0.0,0.0,0.0,4.040,0.0,4096.0,13950247.0,3338681.0,0.0,0.0,6017.0,2333.0
92.0,5.0,0.0,0.0,0.0,3.0,0.0,0.0,10774804.0,9422127.0,0.0,0.0,6244.0,2474.0
96.517,1.990,0.0,0.0,0.0,1.493,0.0,49152.0,813795.0,12372112.0,0.0,0.0,3118.0,1658.0
98.0,1.500,0.500,0.0,0.0,0.0,0.0,66048.0,1566.0,52644.0,0.0,0.0,1079.0,2048.0
96.500,2.500,1.0,0.0,0.0,0.0,0.0,94208.0,197.0,829.0,0.0,0.0,820.0,5838.0
95.455,1.515,3.030,0.0,0.0,0.0,0.0,0.0,1429.0,3809.0,0.0,0.0,1587.0,4385.0
95.522,3.980,0.498,0.0,0.0,0.0,0.0,4096.0,249.0,961.0,0.0,0.0,2552.0,6235.0
100.0,0.0,0.0,0.0,0.0,0.0,0.0,73728.0,446.0,1609.0,0.0,0.0,786.0,656.0
99.010,0.495,0.495,0.0,0.0,0.0,0.0,4096.0,288.0,1353.0,0.0,0.0,772.0,652.0
92.0,3.500,0.0,0.0,0.0,4.500,0.0,0.0,12793118.0,8373421.0,0.0,0.0,6340.0,2494.0
92.965,4.020,0.0,0.0,0.0,3.015,0.0,90112.0,7535513.0,11271579.0,0.0,0.0,6393.0,7050.0
99.005,0.995,0.0,0.0,0.0,0.0,0.0,0.0,409.0,1911.0,0.0,0.0,1122.0,2253.0
99.500,0.0,0.500,0.0,0.0,0.0,0.0,4096.0,249.0,961.0,0.0,0.0,766.0,648.0
98.492,1.005,0.0,0.0,0.0,0.503,0.0,0.0,3438384.0,78343.0,0.0,0.0,2021.0,1158.0
89.0,5.500,0.500,0.0,0.0,5.0,0.0,4096.0,19140242.0,14910301.0,0.0,0.0,9076.0,3082.0
92.965,4.523,0.0,0.0,0.0,2.513,0.0,0.0,9397442.0,15981381.0,0.0,0.0,6444.0,2776.0
97.500,2.0,0.500,0.0,0.0,0.0,0.0,20480.0,136669.0,4261.0,0.0,0.0,944.0,3655.0
98.507,0.995,0.498,0.0,0.0,0.0,0.0,0.0,409.0,1911.0,0.0,0.0,772.0,1212.0
100.0,0.0,0.0,0.0,0.0,0.0,0.0,4096.0,197.0,829.0,0.0,0.0,761.0,653.0
99.005,0.498,0.0,0.0,0.0,0.498,0.0,0.0,1259772.0,27919.0,0.0,0.0,1152.0,820.0
93.0,3.500,0.0,0.0,0.0,3.500,0.0,7168.0,14268506.0,6663907.0,0.0,0.0,6917.0,3327.0
90.955,4.020,0.503,0.0,0.0,4.523,0.0,0.0,14987084.0,16420441.0,0.0,0.0,7804.0,3214.0
95.500,2.0,0.0,0.0,0.0,2.500,0.0,49152.0,5008747.0,11237457.0,0.0,0.0,4287.0,1958.0
93.0,7.0,0.0,0.0,0.0,0.0,0.0,36864.0,409.0,1911.0,0.0,0.0,902.0,1046.0
94.030,5.970,0.0,0.0,0.0,0.0,0.0,49152.0,197.0,829.0,0.0,0.0,947.0,1402.0
93.970,6.030,0.0,0.0,0.0,0.0,0.0,0.0,318.0,1387.0,0.0,0.0,1046.0,1800.0
91.500,8.0,0.500,0.0,0.0,0.0,0.0,4096.0,3949.0,2301.0,0.0,0.0,934.0,1197.0
98.0,1.0,0.0,0.0,0.0,1.0,0.0,0.0,2280735.0,48907.0,0.0,0.0,1629.0,994.0
89.0,4.0,0.500,0.0,0.0,6.500,0.0,4096.0,18840420.0,7254271.0,0.0,0.0,8195.0,2845.0
91.542,3.980,0.0,0.0,0.0,4.478,0.0,0.0,11470632.0,15472104.0,0.0,0.0,7476.0,2972.0
94.949,3.030,0.0,0.0,0.0,2.020,0.0,81920.0,4641616.0,14368490.0,0.0,0.0,4691.0,1911.0
99.502,0.0,0.498,0.0,0.0,0.0,0.0,0.0,953518.0,21946.0,0.0,0.0,1086.0,871.0
98.500,0.500,0.500,0.0,0.0,0.500,0.0,69632.0,884255.0,21591.0,0.0,0.0,1188.0,1890.0
92.040,3.483,0.0,0.0,0.0,4.478,0.0,59904.0,16907110.0,4344605.0,0.0,0.0,7151.0,2666.0
91.500,5.0,0.500,0.0,0.0,3.0,0.0,4096.0,6722552.0,14628923.0,0.0,0.0,5937.0,2424.0
96.985,2.010,0.503,0.0,0.0,0.503,0.0,0.0,1023105.0,6237609.0,0.0,0.0,2440.0,1189.0
95.477,3.518,1.005,0.0,0.0,0.0,0.0,57344.0,197.0,829.0,0.0,0.0,1414.0,3797.0
88.119,2.475,8.911,0.0,0.0,0.495,0.0,12288.0,1442.0,3405.0,0.0,0.0,1194.0,3912.0
96.0,3.0,1.0,0.0,0.0,0.0,0.0,4096.0,340.0,1485.0,0.0,0.0,2297.0,4304.0
97.487,2.010,0.503,0.0,0.0,0.0,0.0,0.0,318.0,1387.0,0.0,0.0,2019.0,4031.0
99.005,0.498,0.498,0.0,0.0,0.0,0.0,4096.0,249.0,883.0,0.0,0.0,761.0,650.0
79.0,21.0,0.0,0.0,0.0,0.0,0.0,90112.0,409.0,1911.0,0.0,0.0,1360.0,12888.0
80.500,18.500,0.0,0.0,0.0,1.0,0.0,114688.0,7697749.0,4184717.0,0.0,0.0,4871.0,10925.0
89.950,6.030,0.0,0.0,0.0,4.020,0.0,0.0,12629350.0,15555991.0,0.0,0.0,8468.0,6275.0
96.500,3.0,0.500,0.0,0.0,0.0,0.0,4096.0,288.0,1353.0,0.0,0.0,1889.0,3898.0
99.500,0.0,0.500,0.0,0.0,0.0,0.0,0.0,318.0,1387.0,0.0,0.0,771.0,644.0
98.0,1.0,0.0,0.0,0.0,1.0,0.0,4096.0,1702613.0,42607.0,0.0,0.0,1543.0,934.0
89.552,4.478,0.498,0.0,0.0,5.473,0.0,28672.0,18505913.0,11516119.0,0.0,0.0,9086.0,3295.0
94.500,4.0,0.0,0.0,0.0,1.500,0.0,4096.0,9636355.0,15563231.0,0.0,0.0,6683.0,2590.0
95.0,4.0,0.0,0.0,0.0,1.0,0.0,0.0,2361315.0,3937590.0,0.0,0.0,3058.0,4449.0
99.0,0.500,0.500,0.0,0.0,0.0,0.0,11264.0,19760.0,3494.0,0.0,0.0,1086.0,2897.0
100.0,0.0,0.0,0.0,0.0,0.0,0.0,0.0,318.0,1387.0,0.0,0.0,736.0,611.0
99.497,0.503,0.0,0.0,0.0,0.0,0.0,4096.0,340649.0,9409.0,0.0,0.0,867.0,719.0
95.025,2.488,0.0,0.0,0.0,2.488,0.0,24576.0,10577717.0,1501841.0,0.0,0.0,5130.0,3033.0
86.500,5.0,1.0,0.0,0.0,7.500,0.0,4096.0,16040717.0,14551683.0,0.0,0.0,9537.0,3630.0
94.472,3.518,0.0,0.0,0.0,2.010,0.0,43520.0,6419192.0,14286559.0,0.0,0.0,5378.0,2458.0
96.020,2.488,0.498,0.0,0.0,0.995,0.0,4096.0,2156002.0,4103703.0,0.0,0.0,2204.0,1303.0
98.0,2.0,0.0,0.0,0.0,0.0,0.0,200704.0,567.0,1967.0,0.0,0.0,795.0,2012.0
99.500,0.0,0.500,0.0,0.0,0.0,0.0,4096.0,273.0,919.0,0.0,0.0,760.0,655.0
97.015,2.488,0.0,0.0,0.0,0.498,0.0,53248.0,2791793.0,68241.0,0.0,0.0,1979.0,1241.0
91.919,4.545,0.0,0.0,0.0,3.535,0.0,4096.0,17218231.0,5809353.0,0.0,0.0,7965.0,2957.0
93.0,4.0,0.0,0.0,0.0,3.0,0.0,0.0,10329808.0,16390233.0,0.0,0.0,7498.0,3161.0
95.0,3.0,0.0,0.0,0.0,2.0,0.0,4096.0,5561937.0,14161723.0,0.0,0.0,5188.0,2231.0
98.507,0.498,0.498,0.0,0.0,0.498,0.0,92672.0,2261362.0,747523.0,0.0,0.0,1742.0,1192.0
98.507,0.995,0.498,0.0,0.0,0.0,0.0,4096.0,1463839.0,35149.0,0.0,0.0,1364.0,2019.0
94.472,2.513,0.0,0.0,0.0,3.015,0.0,40960.0,15318581.0,1982763.0,0.0,0.0,5915.0,2077.0
93.500,3.500,0.0,0.0,0.0,3.0,0.0,4096.0,5658053.0,19530295.0,0.0,0.0,5906.0,2291.0
94.500,4.500,0.500,0.0,0.0,0.500,0.0,73728.0,2808702.0,3431073.0,0.0,0.0,2202.0,1386.0
96.985,2.513,0.503,0.0,0.0,0.0,0.0,4096.0,288.0,1353.0,0.0,0.0,1119.0,3618.0
97.500,2.0,0.500,0.0,0.0,0.0,0.0,0.0,1338.0,3219.0,0.0,0.0,859.0,5724.0
95.980,3.518,0.503,0.0,0.0,0.0,0.0,4096.0,249.0,1027.0,0.0,0.0,1966.0,7816.0
96.500,3.0,0.500,0.0,0.0,0.0,0.0,98304.0,409.0,1911.0,0.0,0.0,2224.0,4886.0
99.502,0.498,0.0,0.0,0.0,0.0,0.0,12288.0,249.0,961.0,0.0,0.0,771.0,656.0
100.0,0.0,0.0,0.0,0.0,0.0,0.0,0.0,306704.0,9175.0,0.0,0.0,912.0,728.0
90.500,4.500,0.500,0.0,0.0,4.500,0.0,4096.0,15693972.0,16323927.0,0.0,0.0,7795.0,3194.0
93.970,5.025,0.0,0.0,0.0,1.005,0.0,0.0,4827214.0,3827983.0,0.0,0.0,4911.0,8607.0
99.005,0.498,0.498,0.0,0.0,0.0,0.0,4096.0,273.0,919.0,0.0,0.0,768.0,715.0
99.005,0.0,0.498,0.0,0.0,0.498,0.0,122880.0,485.0,2001.0,0.0,0.0,791.0,668.0
98.0,1.0,0.0,0.0,0.0,1.0,0.0,4096.0,5377935.0,2091613.0,0.0,0.0,2768.0,1488.0
90.955,6.533,0.0,0.0,0.0,2.513,0.0,0.0,18645956.0,16269783.0,0.0,0.0,8369.0,3366.0
93.0,3.500,0.500,0.0,0.0,3.0,0.0,7168.0,8143446.0,13144909.0,0.0,0.0,5455.0,2768.0
98.500,1.0,0.500,0.0,0.0,0.0,0.0,0.0,477062.0,12715.0,0.0,0.0,1183.0,3031.0
99.500,0.500,0.0,0.0,0.0,0.0,0.0,12288.0,197.0,829.0,0.0,0.0,748.0,659.0
99.497,0.503,0.0,0.0,0.0,0.0,53248.0,16384.0,409.0,1911.0,0.0,0.0,830.0,745.0
99.005,0.995,0.0,0.0,0.0,0.0,0.0,4096.0,2790749.0,64007.0,0.0,0.0,1524.0,953.0
90.452,6.030,0.0,0.0,0.0,3.518,0.0,0.0,14845925.0,11561639.0,0.0,0.0,7178.0,3565.0
91.542,5.473,0.498,0.0,0.0,2.488,0.0,4096.0,12937893.0,15282045.0,0.0,0.0,7534.0,3030.0
96.482,2.513,0.0,0.0,0.0,1.005,0.0,4096.0,6107531.0,8669825.0,0.0,0.0,3993.0,1854.0
99.502,0.498,0.0,0.0,0.0,0.0,0.0,65536.0,318.0,1387.0,0.0,0.0,776.0,876.0
98.485,1.010,0.505,0.0,0.0,0.0,0.0,0.0,288.0,1353.0,0.0,0.0,844.0,1639.0
99.005,0.995,0.0,0.0,0.0,0.0,0.0,4096.0,318.0,1387.0,0.0,0.0,759.0,661.0
97.487,1.508,0.0,0.0,0.0,1.005,0.0,0.0,6432535.0,143917.0,0.0,0.0,2579.0,1389.0
88.500,6.500,0.500,0.0,0.0,4.500,0.0,4096.0,17635167.0,15071053.0,0.0,0.0,8217.0,3413.0
93.069,1.980,0.495,0.0,0.0,4.455,0.0,55808.0,11546159.0,13975793.0,0.0,0.0,6809.0,2511.0
96.985,1.005,0.0,0.0,0.0,2.010,0.0,45056.0,4404614.0,8106973.0,0.0,0.0,3383.0,1715.0
97.0,1.500,0.500,0.0,0.0,1.0,0.0,0.0,3578320.0,85965.0,0.0,0.0,2053.0,2457.0
88.500,6.0,3.500,0.0,0.0,2.0,0.0,4096.0,7989356.0,12913145.0,0.0,0.0,5165.0,2402.0
99.500,0.0,0.500,0.0,0.0,0.0,0.0,0.0,197.0,829.0,0.0,0.0,758.0,643.0
94.975,4.523,0.503,0.0,0.0,0.0,0.0,4096.0,409.0,1911.0,0.0,0.0,1167.0,6339.0
94.500,3.0,2.500,0.0,0.0,0.0,0.0,0.0,1217.0,2727.0,0.0,0.0,2356.0,8384.0
91.500,7.500,0.500,0.0,0.0,0.500,0.0,86016.0,370.0,1519.0,0.0,0.0,5378.0,13988.0
99.502,0.498,0.0,0.0,0.0,0.0,0.0,0.0,288.0,1353.0,0.0,0.0,760.0,900.0
99.497,0.0,0.503,0.0,0.0,0.0,0.0,61440.0,318.0,1387.0,0.0,0.0,769.0,648.0
100.0,0.0,0.0,0.0,0.0,0.0,0.0,0.0,544785.0,14755.0,0.0,0.0,927.0,708.0
87.437,6.533,0.0,0.0,0.0,6.030,0.0,4096.0,23641103.0,18294531.0,0.0,0.0,10585.0,4217.0
93.035,2.985,0.498,0.0,0.0,3.483,0.0,0.0,10712865.0,15680231.0,0.0,0.0,6417.0,2688.0
100.0,0.0,0.0,0.0,0.0,0.0,0.0,36864.0,318.0,1387.0,0.0,0.0,770.0,658.0
99.502,0.0,0.498,0.0,0.0,0.0,0.0,4096.0,288.0,1353.0,0.0,0.0,750.0,643.0
99.0,0.500,0.0,0.0,0.0,0.500,0.0,4096.0,2417652.0,59203.0,0.0,0.0,1560.0,1064.0
92.500,4.500,0.0,0.0,0.0,3.0,0.0,0.0,10880129.0,6780019.0,0.0,0.0,5358.0,2495.0
92.0,5.500,0.500,0.0,0.0,2.0,0.0,9216.0,14384144.0,12377924.0,0.0,0.0,7404.0,2982.0
93.0,4.500,0.0,0.0,0.0,2.500,0.0,0.0,10517079.0,16314101.0,0.0,0.0,6664.0,2870.0
96.500,3.0,0.500,0.0,0.0,0.0,0.0,49152.0,33182.0,1710073.0,0.0,0.0,1262.0,1642.0
95.500,3.0,1.500,0.0,0.0,0.0,0.0,0.0,288.0,1353.0,0.0,0.0,1153.0,2583.0
92.929,4.040,3.030,0.0,0.0,0.0,0.0,4096.0,1338.0,3285.0,0.0,0.0,2524.0,6844.0
92.0,7.0,1.0,0.0,0.0,0.0,0.0,39424.0,277.0,1003.0,0.0,0.0,5289.0,12922.0
97.015,1.493,0.498,0.0,0.0,0.995,0.0,4096.0,4628289.0,102165.0,0.0,0.0,2112.0,1196.0
88.945,5.025,2.513,0.0,0.0,3.518,0.0,143360.0,8194678.0,12328927.0,0.0,0.0,5360.0,2269.0
87.437,8.543,4.020,0.0,0.0,0.0,0.0,4096.0,1338.0,3285.0,0.0,0.0,5979.0,12904.0
83.838,3.030,12.626,0.0,0.0,0.505,0.0,0.0,1366992.0,1355847.0,0.0,0.0,2554.0,6858.0
86.432,11.055,2.513,0.0,0.0,0.0,0.0,4096.0,1338.0,3285.0,0.0,0.0,6780.0,16782.0
83.417,5.025,11.055,0.0,0.0,0.503,0.0,0.0,200233.0,199773.0,0.0,0.0,3997.0,8256.0
87.562,5.473,6.965,0.0,0.0,0.0,0.0,28672.0,34694.0,22837.0,0.0,0.0,4234.0,11268.0
75.879,8.040,16.080,0.0,0.0,0.0,0.0,66048.0,2153.0,18779.0,0.0,0.0,6286.0,14768.0
89.899,7.576,2.525,0.0,0.0,0.0,0.0,4096.0,11350.0,13889.0,0.0,0.0,4001.0,9236.0
85.0,8.0,7.0,0.0,0.0,0.0,0.0,0.0,7632.0,10423.0,0.0,0.0,4695.0,12540.0
91.960,7.538,0.503,0.0,0.0,0.0,0.0,4096.0,370.0,1519.0,0.0,0.0,6161.0,15628.0
76.382,12.563,11.055,0.0,0.0,0.0,0.0,65536.0,5811.0,8061.0,0.0,0.0,6716.0,16735.0
41.294,4.478,54.229,0.0,0.0,0.0,0.0,4096.0,11199.0,12506.0,0.0,0.0,1293.0,1529.0
85.787,7.614,5.076,0.0,0.0,1.523,8192.0,0.0,8407127.0,9078493.0,0.0,0.0,4371.0,5300.0
84.500,12.500,2.500,0.0,0.0,0.500,0.0,4096.0,1810365.0,857713.0,0.0,0.0,7474.0,17559.0
22.613,4.523,72.864,0.0,0.0,0.0,0.0,4861952.0,14574.0,23285.0,0.0,0.0,1046.0,969.0
0.0,0.503,99.497,0.0,0.0,0.0,0.0,12288.0,310.0,1446.0,0.0,0.0,352.0,582.0
0.0,0.0,100.0,0.0,0.0,0.0,0.0,61440.0,197.0,1325.0,0.0,0.0,321.0,558.0
0.995,0.498,98.507,0.0,0.0,0.0,0.0,4096.0,461.0,2013.0,0.0,0.0,378.0,613.0
0.0,0.0,100.0,0.0,0.0,0.0,0.0,4861952.0,249.0,931.0,0.0,0.0,400.0,580.0
0.0,0.0,100.0,0.0,0.0,0.0,0.0,4096.0,370.0,1489.0,0.0,0.0,334.0,583.0
0.0,0.503,99.497,0.0,0.0,0.0,0.0,77824.0,340.0,1455.0,0.0,0.0,337.0,583.0
0.503,0.0,99.497,0.0,0.0,0.0,0.0,4096.0,318.0,1387.0,0.0,0.0,345.0,586.0
0.0,0.0,100.0,0.0,0.0,0.0,0.0,28672.0,197.0,829.0,0.0,0.0,342.0,578.0
0.0,1.005,98.995,0.0,0.0,0.0,0.0,4867584.0,513.0,2145.0,0.0,0.0,485.0,630.0
0.0,0.0,100.0,0.0,0.0,0.0,0.0,0.0,197.0,829.0,0.0,0.0,319.0,565.0
0.503,0.0,99.497,0.0,0.0,0.0,0.0,16384.0,370.0,1489.0,0.0,0.0,341.0,592.0
0.500,0.500,99.0,0.0,0.0,0.0,0.0,0.0,288.0,1353.0,0.0,0.0,344.0,580.0
0.0,0.0,100.0,0.0,0.0,0.0,0.0,4096.0,318.0,1387.0,0.0,0.0,342.0,583.0
0.0,0.503,99.497,0.0,0.0,0.0,0.0,4890624.0,197.0,829.0,0.0,0.0,379.0,583.0
0.503,0.0,99.497,0.0,0.0,0.0,0.0,4096.0,409.0,1911.0,0.0,0.0,356.0,590.0
0.503,0.0,99.497,0.0,0.0,0.0,0.0,0.0,249.0,931.0,0.0,0.0,314.0,573.0
0.0,0.503,99.497,0.0,0.0,0.0,0.0,12800.0,370.0,1489.0,0.0,0.0,344.0,588.0
0.0,0.0,100.0,0.0,0.0,0.0,0.0,0.0,340.0,1455.0,0.0,0.0,329.0,576.0
0.503,0.503,98.995,0.0,0.0,0.0,0.0,4096.0,370.0,1489.0,0.0,0.0,363.0,589.0
0.0,0.0,100.0,0.0,0.0,0.0,0.0,20480.0,197.0,829.0,0.0,0.0,301.0,579.0
0.0,0.0,100.0,0.0,0.0,0.0,0.0,73728.0,461.0,2013.0,0.0,0.0,349.0,585.0
0.503,0.0,99.497,0.0,0.0,0.0,0.0,81408.0,249.0,931.0,0.0,0.0,339.0,600.0
0.0,0.0,100.0,0.0,0.0,0.0,0.0,4096.0,370.0,1489.0,0.0,0.0,330.0,574.0
0.0,0.0,100.0,0.0,0.0,0.0,0.0,0.0,368.0,1497.0,0.0,0.0,322.0,575.0
0.0,0.0,100.0,0.0,0.0,0.0,0.0,4096.0,370.0,1489.0,0.0,0.0,321.0,576.0
0.0,0.0,100.0,0.0,0.0,0.0,0.0,16384.0,249.0,931.0,0.0,0.0,307.0,560.0
0.0,0.0,100.0,0.0,0.0,0.0,0.0,4096.0,461.0,2013.0,0.0,0.0,341.0,584.0
0.500,0.0,99.500,0.0,0.0,0.0,0.0,49664.0,249.0,931.0,0.0,0.0,319.0,570.0
0.0,0.505,99.495,0.0,0.0,0.0,0.0,4096.0,370.0,1489.0,0.0,0.0,365.0,595.0
0.0,0.0,100.0,0.0,0.0,0.0,0.0,0.0,288.0,1353.0,0.0,0.0,316.0,562.0
