"Dstat 0.7.2 CSV output"
"Author:","Dag Wieers <dag@wieers.com>",,,,"URL:","http://dag.wieers.com/home-made/dstat/"
"Host:","ip-172-31-8-206.us-west-2.compute.internal",,,,"User:","hadoop"
"Cmdline:","dstat -a --output ip-172-31-8-206.us-west-2.compute.internal.csv",,,,"Date:","10 May 2014 18:05:16 UTC"

"total cpu usage",,,,,,"dsk/total",,"net/total",,"paging",,"system",
"usr","sys","idl","wai","hiq","siq","read","writ","recv","send","in","out","int","csw"
10.656,0.885,87.515,0.783,0.0,0.161,189767.075,992828.125,0.0,0.0,0.0,0.0,733.265,807.125
0.0,0.0,100.0,0.0,0.0,0.0,0.0,0.0,370.0,1969.0,0.0,0.0,310.0,563.0
0.0,0.0,100.0,0.0,0.0,0.0,0.0,36864.0,364.0,1439.0,0.0,0.0,334.0,578.0
0.0,0.503,99.497,0.0,0.0,0.0,0.0,0.0,370.0,1489.0,0.0,0.0,358.0,583.0
0.0,0.0,100.0,0.0,0.0,0.0,0.0,6656.0,197.0,829.0,0.0,0.0,316.0,559.0
0.500,0.0,99.500,0.0,0.0,0.0,0.0,0.0,461.0,2009.0,0.0,0.0,318.0,572.0
0.0,0.0,100.0,0.0,0.0,0.0,0.0,4096.0,273.0,919.0,0.0,0.0,325.0,567.0
0.498,0.498,99.005,0.0,0.0,0.0,0.0,0.0,370.0,1489.0,0.0,0.0,323.0,561.0
0.0,0.0,100.0,0.0,0.0,0.0,0.0,16384.0,288.0,1349.0,0.0,0.0,343.0,582.0
0.0,0.0,100.0,0.0,0.0,0.0,0.0,0.0,318.0,1387.0,0.0,0.0,315.0,568.0
0.0,0.0,100.0,0.0,0.0,0.0,0.0,8192.0,273.0,919.0,0.0,0.0,319.0,567.0
0.500,0.0,99.500,0.0,0.0,0.0,0.0,57344.0,461.0,2009.0,0.0,0.0,331.0,573.0
0.0,0.0,100.0,0.0,0.0,0.0,0.0,6656.0,249.0,931.0,0.0,0.0,331.0,574.0
10.714,2.041,86.224,0.0,0.0,1.020,0.0,0.0,620331.0,368956.0,0.0,0.0,1289.0,1257.0
44.776,6.468,44.279,0.0,0.0,4.478,0.0,49152.0,16369732.0,17086641.0,0.0,0.0,8566.0,3086.0
80.402,9.548,0.503,0.0,0.0,9.548,0.0,0.0,48122240.0,35674071.0,0.0,0.0,16410.0,4582.0
84.500,8.0,1.0,0.0,0.0,6.500,0.0,69120.0,30336045.0,21437086.0,0.0,0.0,12597.0,4071.0
88.442,6.533,0.0,0.0,0.0,5.025,0.0,0.0,20975144.0,14777833.0,0.0,0.0,9406.0,2990.0
87.0,7.500,1.0,0.0,0.0,4.500,0.0,43008.0,24072270.0,16978032.0,0.0,0.0,10571.0,3264.0
92.424,4.040,1.515,0.0,0.0,2.020,0.0,24576.0,11442119.0,7827062.0,0.0,0.0,5081.0,2370.0
92.040,4.478,0.498,0.0,0.0,2.985,0.0,4096.0,20386606.0,12540907.0,0.0,0.0,7478.0,4062.0
86.432,8.040,0.0,0.0,0.0,5.528,0.0,36864.0,29055037.0,24175048.0,0.0,0.0,12667.0,3990.0
92.040,6.468,0.0,0.0,0.0,1.493,0.0,4096.0,4846448.0,3676297.0,0.0,0.0,3348.0,5091.0
85.427,9.045,0.0,0.0,0.0,5.528,0.0,0.0,29707542.0,20798153.0,0.0,0.0,11098.0,3415.0
88.500,6.0,0.0,0.0,0.0,5.500,0.0,57344.0,26503031.0,17293579.0,0.0,0.0,10186.0,2822.0
92.0,7.0,0.0,0.0,0.0,1.0,0.0,0.0,13442454.0,2622733.0,0.0,0.0,4072.0,4725.0
84.0,7.500,0.500,0.0,0.0,8.0,0.0,4096.0,30242819.0,26467585.0,0.0,0.0,12238.0,3639.0
94.975,3.518,0.0,0.0,0.0,1.508,0.0,0.0,14284110.0,8935199.0,0.0,0.0,5645.0,2442.0
85.644,8.911,0.495,0.0,0.0,4.950,0.0,6656.0,21967438.0,14807115.0,0.0,0.0,8581.0,5721.0
87.437,6.533,0.0,0.0,0.0,6.030,0.0,0.0,33895241.0,23895931.0,0.0,0.0,13693.0,3693.0
95.477,4.020,0.0,0.0,0.0,0.503,0.0,53248.0,5134784.0,1507885.0,0.0,0.0,3295.0,4739.0
85.500,8.0,0.0,0.0,0.0,6.500,0.0,83668992.0,30816929.0,20538567.0,0.0,0.0,14079.0,2807.0
90.955,4.523,0.0,0.0,0.0,4.523,0.0,4096.0,23433231.0,15309063.0,0.0,0.0,9607.0,2395.0
91.0,8.0,0.0,0.0,0.0,1.0,0.0,0.0,7892407.0,5852773.0,0.0,0.0,4559.0,3685.0
88.0,7.0,0.500,0.0,0.0,4.500,0.0,4096.0,25048546.0,20379403.0,0.0,0.0,10491.0,3278.0
89.500,6.500,0.500,0.0,0.0,3.500,0.0,94208.0,12113901.0,12785837.0,0.0,0.0,7393.0,3998.0
92.537,4.478,0.498,0.0,0.0,2.488,0.0,125368832.0,1939655.0,10754033.0,0.0,0.0,6547.0,2592.0
95.0,5.0,0.0,0.0,0.0,0.0,0.0,0.0,422.0,1651.0,0.0,0.0,1569.0,3894.0
91.919,7.071,1.010,0.0,0.0,0.0,0.0,4096.0,236.0,1217.0,0.0,0.0,2216.0,6374.0
98.500,1.500,0.0,0.0,0.0,0.0,0.0,0.0,197.0,829.0,0.0,0.0,1682.0,3737.0
99.500,0.0,0.500,0.0,0.0,0.0,0.0,4096.0,318.0,1387.0,0.0,0.0,772.0,671.0
99.497,0.503,0.0,0.0,0.0,0.0,0.0,86016.0,288.0,1349.0,0.0,0.0,793.0,689.0
63.682,1.493,34.826,0.0,0.0,0.0,0.0,4096.0,638750.0,362783.0,0.0,0.0,1176.0,1172.0
75.377,7.035,14.070,0.0,0.0,3.518,0.0,0.0,18470483.0,12985939.0,0.0,0.0,9107.0,3625.0
92.0,7.0,0.0,0.0,0.0,1.0,0.0,6656.0,3411671.0,8726563.0,0.0,0.0,4692.0,6036.0
89.500,10.0,0.500,0.0,0.0,0.0,0.0,12288.0,197.0,829.0,0.0,0.0,1590.0,4690.0
97.990,2.010,0.0,0.0,0.0,0.0,0.0,104583680.0,318.0,1387.0,0.0,0.0,3127.0,822.0
100.0,0.0,0.0,0.0,0.0,0.0,0.0,90112.0,288.0,1349.0,0.0,0.0,800.0,694.0
96.985,1.508,0.0,0.0,0.0,1.508,0.0,4096.0,5612414.0,1760229.0,0.0,0.0,3080.0,1605.0
89.500,7.500,0.0,0.0,0.0,3.0,0.0,0.0,19503697.0,15425081.0,0.0,0.0,9469.0,3333.0
91.542,5.473,0.498,0.0,0.0,2.488,0.0,8192.0,8743109.0,14800717.0,0.0,0.0,6589.0,4009.0
93.500,6.0,0.0,0.0,0.0,0.500,0.0,103415808.0,12157.0,857925.0,0.0,0.0,4201.0,5171.0
93.500,6.0,0.0,0.500,0.0,0.0,0.0,138579968.0,318.0,1387.0,0.0,0.0,3940.0,6529.0
96.040,2.970,0.990,0.0,0.0,0.0,0.0,0.0,288.0,1349.0,0.0,0.0,1553.0,2834.0
100.0,0.0,0.0,0.0,0.0,0.0,0.0,4096.0,318.0,1867.0,0.0,0.0,791.0,689.0
100.0,0.0,0.0,0.0,0.0,0.0,0.0,0.0,306719.0,8659.0,0.0,0.0,900.0,735.0
94.527,3.980,0.498,0.0,0.0,0.995,0.0,6656.0,8821101.0,2405643.0,0.0,0.0,4033.0,1934.0
84.0,10.500,0.0,0.0,0.0,5.500,0.0,49152.0,14459815.0,7827325.0,0.0,0.0,7040.0,3195.0
91.960,4.523,0.0,0.0,0.0,3.518,0.0,4096.0,10627256.0,15789223.0,0.0,0.0,7275.0,2836.0
93.500,4.0,0.500,0.0,0.0,2.0,0.0,0.0,5196178.0,12335411.0,0.0,0.0,4763.0,2825.0
97.500,2.500,0.0,0.0,0.0,0.0,0.0,4096.0,394.0,1477.0,0.0,0.0,1261.0,3442.0
97.487,2.513,0.0,0.0,0.0,0.0,0.0,0.0,197.0,829.0,0.0,0.0,1306.0,3188.0
96.500,3.0,0.500,0.0,0.0,0.0,0.0,40960.0,409.0,1907.0,0.0,0.0,1268.0,2669.0
99.500,0.500,0.0,0.0,0.0,0.0,0.0,0.0,197.0,829.0,0.0,0.0,769.0,676.0
97.0,1.500,0.500,0.0,0.0,1.0,0.0,6656.0,3880514.0,90883.0,0.0,0.0,2068.0,1218.0
91.500,5.500,0.0,0.0,0.0,3.0,0.0,0.0,19799146.0,2359525.0,0.0,0.0,7724.0,3016.0
90.955,4.523,0.0,0.0,0.0,4.523,0.0,4096.0,10470618.0,17187645.0,0.0,0.0,6909.0,2702.0
92.537,3.483,0.498,0.0,0.0,3.483,0.0,20480.0,9707501.0,14554981.0,0.0,0.0,6396.0,2596.0
95.0,3.0,0.500,0.0,0.0,1.500,0.0,4096.0,2766863.0,6231471.0,0.0,0.0,3372.0,2998.0
91.045,7.463,0.498,0.0,0.0,0.995,0.0,0.0,1686489.0,6876189.0,0.0,0.0,2706.0,1668.0
95.980,3.518,0.0,0.0,0.0,0.503,0.0,4096.0,318.0,1387.0,0.0,0.0,1137.0,2312.0
94.975,3.518,1.508,0.0,0.0,0.0,0.0,0.0,894.0,2711.0,0.0,0.0,1174.0,5843.0
85.0,4.0,11.0,0.0,0.0,0.0,0.0,6656.0,1872.0,4795.0,0.0,0.0,2480.0,7763.0
98.0,2.0,0.0,0.0,0.0,0.0,0.0,135168.0,19568.0,3114.0,0.0,0.0,1715.0,3466.0
99.502,0.0,0.498,0.0,0.0,0.0,0.0,4096.0,409.0,1907.0,0.0,0.0,791.0,690.0
100.0,0.0,0.0,0.0,0.0,0.0,0.0,0.0,273.0,919.0,0.0,0.0,779.0,681.0
93.467,3.015,0.0,0.0,0.0,3.518,0.0,63488.0,11992156.0,7184095.0,0.0,0.0,5623.0,2366.0
89.552,6.965,0.498,0.0,0.0,2.985,0.0,69632.0,10590388.0,14986095.0,0.0,0.0,7621.0,6924.0
97.487,2.513,0.0,0.0,0.0,0.0,0.0,75776.0,422.0,1519.0,0.0,0.0,1687.0,4547.0
100.0,0.0,0.0,0.0,0.0,0.0,0.0,0.0,197.0,829.0,0.0,0.0,756.0,659.0
99.005,0.498,0.498,0.0,0.0,0.0,0.0,4096.0,409.0,1907.0,0.0,0.0,788.0,685.0
92.965,3.015,0.503,0.0,0.0,3.518,0.0,0.0,10700075.0,6343551.0,0.0,0.0,5662.0,2434.0
84.500,9.500,0.0,0.0,0.0,6.0,0.0,140132352.0,17349225.0,13246883.0,0.0,0.0,12139.0,3543.0
93.500,3.500,0.0,0.0,0.0,3.0,0.0,0.0,5871969.0,12202473.0,0.0,0.0,5503.0,3447.0
97.0,2.500,0.500,0.0,0.0,0.0,0.0,49152.0,22938.0,1155759.0,0.0,0.0,1157.0,3052.0
99.502,0.498,0.0,0.0,0.0,0.0,0.0,0.0,197.0,829.0,0.0,0.0,870.0,922.0
99.497,0.0,0.503,0.0,0.0,0.0,0.0,4096.0,409.0,1907.0,0.0,0.0,774.0,675.0
100.0,0.0,0.0,0.0,0.0,0.0,0.0,0.0,510927.0,13831.0,0.0,0.0,957.0,782.0
94.500,3.500,0.0,0.0,0.0,2.0,0.0,6656.0,10803030.0,2745695.0,0.0,0.0,4637.0,2438.0
89.055,5.473,0.498,0.0,0.0,4.975,0.0,0.0,18033392.0,11714989.0,0.0,0.0,9002.0,3835.0
92.0,4.0,0.0,0.0,0.0,4.0,0.0,45056.0,9198356.0,14399751.0,0.0,0.0,6701.0,2467.0
97.0,2.0,0.500,0.0,0.0,0.500,0.0,0.0,917349.0,9451391.0,0.0,0.0,3130.0,1808.0
99.0,0.500,0.0,0.0,0.0,0.500,0.0,4096.0,1137.0,35055.0,0.0,0.0,1220.0,1428.0
97.487,2.513,0.0,0.0,0.0,0.0,0.0,0.0,249.0,961.0,0.0,0.0,1031.0,2497.0
99.502,0.0,0.498,0.0,0.0,0.0,0.0,4096.0,318.0,1387.0,0.0,0.0,783.0,688.0
98.500,1.0,0.0,0.0,0.0,0.500,0.0,0.0,2451272.0,58637.0,0.0,0.0,1570.0,954.0
91.960,4.020,0.503,0.0,0.0,3.518,0.0,47616.0,15706246.0,3268869.0,0.0,0.0,6843.0,2544.0
89.055,5.970,0.498,0.0,0.0,4.478,0.0,0.0,17766551.0,14556123.0,0.0,0.0,9756.0,3505.0
94.500,3.0,0.0,0.0,0.0,2.500,0.0,4096.0,5416959.0,16048361.0,0.0,0.0,5737.0,2308.0
95.522,1.990,0.498,0.0,0.0,1.990,0.0,0.0,6104791.0,6498713.0,0.0,0.0,4530.0,2113.0
95.431,4.061,0.0,0.0,0.0,0.508,0.0,4096.0,922408.0,6862005.0,0.0,0.0,2413.0,1536.0
98.515,0.990,0.495,0.0,0.0,0.0,0.0,0.0,288.0,1349.0,0.0,0.0,1068.0,1540.0
93.939,5.556,0.505,0.0,0.0,0.0,0.0,53248.0,318.0,1387.0,0.0,0.0,1162.0,7824.0
94.527,3.980,1.493,0.0,0.0,0.0,0.0,0.0,1049.0,2559.0,0.0,0.0,3255.0,8782.0
98.492,1.005,0.503,0.0,0.0,0.0,0.0,6656.0,461.0,2039.0,0.0,0.0,911.0,1058.0
100.0,0.0,0.0,0.0,0.0,0.0,0.0,12288.0,197.0,829.0,0.0,0.0,773.0,678.0
100.0,0.0,0.0,0.0,0.0,0.0,0.0,49664.0,272638.0,8317.0,0.0,0.0,880.0,732.0
89.055,5.473,0.498,0.0,0.0,4.975,0.0,147456.0,16911886.0,14770677.0,0.0,0.0,8940.0,3160.0
92.462,5.528,0.0,0.0,0.0,2.010,0.0,4096.0,5388214.0,7358429.0,0.0,0.0,5579.0,8555.0
99.497,0.0,0.503,0.0,0.0,0.0,0.0,0.0,197.0,829.0,0.0,0.0,1028.0,2046.0
99.005,0.498,0.498,0.0,0.0,0.0,0.0,4096.0,409.0,1907.0,0.0,0.0,780.0,681.0
100.0,0.0,0.0,0.0,0.0,0.0,0.0,0.0,204437.0,5977.0,0.0,0.0,835.0,694.0
90.500,4.500,0.500,0.0,0.0,4.500,0.0,45056.0,16293560.0,11607151.0,0.0,0.0,8396.0,2779.0
91.500,4.500,0.0,0.0,0.0,4.0,0.0,0.0,13624612.0,16017515.0,0.0,0.0,8149.0,3054.0
97.0,2.0,0.0,0.0,0.0,1.0,0.0,4096.0,3798428.0,5261393.0,0.0,0.0,3529.0,4119.0
99.497,0.0,0.503,0.0,0.0,0.0,0.0,0.0,197.0,829.0,0.0,0.0,819.0,1125.0
99.0,0.500,0.500,0.0,0.0,0.0,0.0,6656.0,905.0,2543.0,0.0,0.0,867.0,837.0
99.500,0.0,0.500,0.0,0.0,0.0,0.0,98304.0,197.0,829.0,0.0,0.0,798.0,674.0
99.497,0.503,0.0,0.0,0.0,0.0,0.0,20480.0,1089650.0,27655.0,0.0,0.0,1155.0,862.0
90.547,6.468,0.498,0.0,0.0,2.488,0.0,0.0,12373294.0,8865563.0,0.0,0.0,6751.0,3194.0
88.442,7.035,0.0,0.0,0.0,4.523,0.0,4096.0,17255668.0,17130311.0,0.0,0.0,9853.0,4128.0
93.035,3.483,0.498,0.0,0.0,2.985,0.0,0.0,8706857.0,12341605.0,0.0,0.0,5929.0,2463.0
100.0,0.0,0.0,0.0,0.0,0.0,0.0,4096.0,409.0,1907.0,0.0,0.0,881.0,1550.0
99.0,0.500,0.500,0.0,0.0,0.0,0.0,0.0,197.0,829.0,0.0,0.0,888.0,1398.0
98.500,1.500,0.0,0.0,0.0,0.0,0.0,47616.0,318.0,1387.0,0.0,0.0,989.0,1665.0
100.0,0.0,0.0,0.0,0.0,0.0,0.0,0.0,288.0,1349.0,0.0,0.0,776.0,675.0
97.500,2.0,0.0,0.0,0.0,0.500,0.0,4096.0,3608402.0,85075.0,0.0,0.0,2124.0,1222.0
88.060,4.975,0.498,0.0,0.0,6.468,0.0,0.0,22251781.0,16369371.0,0.0,0.0,11266.0,4189.0
91.500,5.0,0.0,0.0,0.0,3.500,0.0,4096.0,11992947.0,14912091.0,0.0,0.0,7879.0,2985.0
94.975,2.513,0.503,0.0,0.0,2.010,0.0,40960.0,5974303.0,9003837.0,0.0,0.0,4550.0,2394.0
94.0,3.500,0.500,0.0,0.0,2.0,0.0,8192.0,4490558.0,4886454.0,0.0,0.0,3387.0,2385.0
95.522,3.483,0.498,0.0,0.0,0.498,0.0,0.0,40120.0,2056311.0,0.0,0.0,1300.0,2906.0
95.500,3.500,1.0,0.0,0.0,0.0,0.0,6656.0,346.0,1429.0,0.0,0.0,1173.0,3715.0
94.444,5.051,0.505,0.0,0.0,0.0,0.0,0.0,20316.0,4580.0,0.0,0.0,2094.0,8149.0
98.0,1.500,0.500,0.0,0.0,0.0,0.0,4096.0,461.0,2039.0,0.0,0.0,1997.0,4515.0
100.0,0.0,0.0,0.0,0.0,0.0,0.0,77824.0,273.0,919.0,0.0,0.0,769.0,668.0
99.005,0.498,0.498,0.0,0.0,0.0,0.0,63488.0,318.0,1387.0,0.0,0.0,781.0,690.0
94.975,2.513,0.0,0.0,0.0,2.513,0.0,4096.0,9670382.0,6148631.0,0.0,0.0,5140.0,2036.0
90.0,7.0,0.0,0.0,0.0,3.0,0.0,43008.0,12909242.0,16028531.0,0.0,0.0,8583.0,7206.0
97.015,1.990,0.498,0.0,0.0,0.498,0.0,0.0,197.0,829.0,0.0,0.0,2397.0,4324.0
100.0,0.0,0.0,0.0,0.0,0.0,0.0,4096.0,409.0,1907.0,0.0,0.0,788.0,692.0
99.005,0.498,0.498,0.0,0.0,0.0,0.0,32768.0,273.0,919.0,0.0,0.0,769.0,668.0
94.472,2.513,0.503,0.0,0.0,2.513,0.0,69632.0,10713091.0,5278277.0,0.0,0.0,5902.0,2434.0
90.547,5.970,0.0,0.0,0.0,3.483,0.0,0.0,17938603.0,15961623.0,0.0,0.0,9732.0,3646.0
94.472,4.020,0.0,0.0,0.0,1.508,0.0,4096.0,5115070.0,11661839.0,0.0,0.0,5164.0,4007.0
98.492,1.508,0.0,0.0,0.0,0.0,0.0,0.0,170475.0,4987.0,0.0,0.0,868.0,2769.0
99.005,0.498,0.498,0.0,0.0,0.0,0.0,4096.0,485.0,1997.0,0.0,0.0,806.0,898.0
99.500,0.0,0.500,0.0,0.0,0.0,0.0,32768.0,197.0,829.0,0.0,0.0,773.0,680.0
100.0,0.0,0.0,0.0,0.0,0.0,0.0,6656.0,318.0,1387.0,0.0,0.0,780.0,691.0
94.527,1.990,0.498,0.0,0.0,2.985,0.0,0.0,11256258.0,3126983.0,0.0,0.0,5502.0,2571.0
90.955,5.528,0.0,0.0,0.0,3.518,0.0,4096.0,18698512.0,13601661.0,0.0,0.0,9956.0,4361.0
94.030,3.980,0.0,0.0,0.0,1.990,0.0,0.0,8121389.0,13690875.0,0.0,0.0,6039.0,2607.0
97.0,2.0,0.0,0.0,0.0,1.0,0.0,61440.0,1371501.0,7981217.0,0.0,0.0,2758.0,1913.0
99.005,0.498,0.498,0.0,0.0,0.0,0.0,36864.0,249.0,961.0,0.0,0.0,997.0,1361.0
98.990,1.010,0.0,0.0,0.0,0.0,0.0,4096.0,318.0,1387.0,0.0,0.0,914.0,2500.0
100.0,0.0,0.0,0.0,0.0,0.0,0.0,0.0,288.0,1349.0,0.0,0.0,768.0,671.0
99.0,1.0,0.0,0.0,0.0,0.0,0.0,6144.0,1021674.0,26071.0,0.0,0.0,1121.0,804.0
92.0,3.500,0.500,0.0,0.0,4.0,0.0,0.0,20049343.0,7834587.0,0.0,0.0,8963.0,3204.0
89.0,5.0,0.0,0.0,0.0,6.0,0.0,4096.0,16353925.0,12540023.0,0.0,0.0,9078.0,3581.0
93.970,4.020,0.503,0.0,0.0,1.508,0.0,40960.0,5189703.0,11659983.0,0.0,0.0,4810.0,2231.0
93.0,4.0,0.0,0.0,0.0,3.0,0.0,4096.0,5688554.0,11805097.0,0.0,0.0,4848.0,2779.0
92.0,4.0,4.0,0.0,0.0,0.0,0.0,0.0,67628.0,3498459.0,0.0,0.0,1606.0,3152.0
98.990,1.010,0.0,0.0,0.0,0.0,0.0,4096.0,318.0,1387.0,0.0,0.0,1105.0,1298.0
87.500,4.500,8.0,0.0,0.0,0.0,0.0,0.0,1101.0,2625.0,0.0,0.0,1166.0,6908.0
95.0,5.0,0.0,0.0,0.0,0.0,0.0,6656.0,461.0,2039.0,0.0,0.0,3152.0,7978.0
99.0,0.500,0.500,0.0,0.0,0.0,0.0,73728.0,197.0,829.0,0.0,0.0,774.0,668.0
100.0,0.0,0.0,0.0,0.0,0.0,0.0,23552.0,318.0,1387.0,0.0,0.0,790.0,702.0
98.500,0.0,0.500,0.0,0.0,1.0,0.0,16384.0,2140408.0,1631987.0,0.0,0.0,1841.0,1035.0
89.500,6.0,0.0,0.0,0.0,4.500,0.0,4096.0,20432560.0,18363561.0,0.0,0.0,10554.0,4488.0
95.980,4.020,0.0,0.0,0.0,0.0,0.0,0.0,39821.0,2143239.0,0.0,0.0,3151.0,8217.0
100.0,0.0,0.0,0.0,0.0,0.0,0.0,4096.0,409.0,1907.0,0.0,0.0,793.0,696.0
99.0,0.0,1.0,0.0,0.0,0.0,0.0,12288.0,197.0,829.0,0.0,0.0,773.0,677.0
98.507,0.498,0.498,0.0,0.0,0.498,0.0,8192.0,1508322.0,500439.0,0.0,0.0,1630.0,1054.0
85.572,6.965,0.498,0.0,0.0,6.965,0.0,0.0,18835306.0,16258047.0,0.0,0.0,10374.0,3999.0
91.960,5.025,0.0,0.0,0.0,3.015,0.0,4096.0,12714590.0,15128923.0,0.0,0.0,8229.0,4019.0
97.015,1.990,0.0,0.0,0.0,0.995,0.0,0.0,870567.0,1044257.0,0.0,0.0,1642.0,3621.0
99.497,0.503,0.0,0.0,0.0,0.0,0.0,7680.0,409.0,1907.0,0.0,0.0,945.0,1067.0
99.010,0.0,0.495,0.0,0.0,0.495,0.0,69632.0,197.0,829.0,0.0,0.0,786.0,699.0
99.492,0.0,0.508,0.0,0.0,0.0,0.0,4096.0,318.0,1387.0,0.0,0.0,798.0,718.0
98.020,0.990,0.495,0.0,0.0,0.495,0.0,0.0,2825790.0,64907.0,0.0,0.0,1714.0,1059.0
89.447,6.030,0.0,0.0,0.0,4.523,0.0,4096.0,15068888.0,15145539.0,0.0,0.0,8965.0,4120.0
90.0,5.500,0.0,0.0,0.0,4.500,0.0,0.0,15235919.0,17206377.0,0.0,0.0,9473.0,3564.0
97.0,2.0,0.0,0.0,0.0,1.0,0.0,61440.0,6336594.0,5973625.0,0.0,0.0,4363.0,2303.0
98.0,1.500,0.500,0.0,0.0,0.0,0.0,0.0,258.0,1247.0,0.0,0.0,1155.0,1679.0
100.0,0.0,0.0,0.0,0.0,0.0,0.0,6656.0,197.0,829.0,0.0,0.0,1124.0,1726.0
98.507,0.995,0.498,0.0,0.0,0.0,0.0,8704.0,409.0,1907.0,0.0,0.0,818.0,1008.0
99.500,0.0,0.500,0.0,0.0,0.0,0.0,4096.0,197.0,829.0,0.0,0.0,778.0,689.0
97.0,2.0,0.0,0.0,0.0,1.0,0.0,49152.0,8140994.0,2484701.0,0.0,0.0,3709.0,1669.0
89.0,5.500,0.500,0.0,0.0,5.0,0.0,45056.0,19025182.0,20370379.0,0.0,0.0,10924.0,4110.0
91.500,4.500,0.0,0.0,0.0,4.0,0.0,0.0,12501158.0,14927857.0,0.0,0.0,8267.0,3133.0
96.482,1.508,0.503,0.0,0.0,1.508,0.0,4096.0,5732103.0,2673675.0,0.0,0.0,3302.0,1968.0
94.0,4.0,0.500,0.0,0.0,1.500,0.0,0.0,2954605.0,6904039.0,0.0,0.0,3133.0,2483.0
98.507,0.995,0.498,0.0,0.0,0.0,0.0,14848.0,197.0,829.0,0.0,0.0,965.0,1518.0
94.472,5.025,0.503,0.0,0.0,0.0,0.0,73728.0,19645.0,3548.0,0.0,0.0,1069.0,8472.0
84.500,5.0,10.500,0.0,0.0,0.0,0.0,4096.0,1080.0,2939.0,0.0,0.0,3297.0,8101.0
99.0,0.500,0.500,0.0,0.0,0.0,0.0,0.0,446.0,1609.0,0.0,0.0,879.0,1056.0
100.0,0.0,0.0,0.0,0.0,0.0,0.0,4096.0,197.0,829.0,0.0,0.0,782.0,670.0
98.507,0.498,0.498,0.0,0.0,0.498,0.0,59392.0,476865.0,14117.0,0.0,0.0,1038.0,810.0
90.500,6.0,0.0,0.0,0.0,3.500,0.0,41984.0,18979833.0,15032397.0,0.0,0.0,10125.0,3972.0
91.960,6.533,0.0,0.0,0.0,1.508,0.0,77824.0,3130836.0,7153485.0,0.0,0.0,5108.0,8692.0
99.005,0.995,0.0,0.0,0.0,0.0,0.0,4096.0,316.0,1391.0,0.0,0.0,1096.0,1275.0
100.0,0.0,0.0,0.0,0.0,0.0,0.0,0.0,394.0,1477.0,0.0,0.0,778.0,669.0
98.995,1.005,0.0,0.0,0.0,0.0,0.0,4096.0,681298.0,18041.0,0.0,0.0,1035.0,826.0
87.624,6.931,0.495,0.0,0.0,4.950,0.0,0.0,18020982.0,11945843.0,0.0,0.0,9940.0,3881.0
91.500,4.500,0.0,0.0,0.0,4.0,0.0,4096.0,12549373.0,16101283.0,0.0,0.0,8257.0,3130.0
95.477,3.015,0.503,0.0,0.0,1.005,0.0,24576.0,2666450.0,4876107.0,0.0,0.0,3015.0,3629.0
99.500,0.500,0.0,0.0,0.0,0.0,0.0,6656.0,288.0,1349.0,0.0,0.0,833.0,1176.0
100.0,0.0,0.0,0.0,0.0,0.0,0.0,16384.0,318.0,1387.0,0.0,0.0,784.0,731.0
99.502,0.0,0.498,0.0,0.0,0.0,0.0,4096.0,273.0,919.0,0.0,0.0,775.0,680.0
99.0,0.500,0.0,0.0,0.0,0.500,0.0,0.0,2111461.0,53453.0,0.0,0.0,1600.0,1022.0
92.929,4.545,0.0,0.0,0.0,2.525,0.0,4096.0,13887193.0,7634245.0,0.0,0.0,7252.0,3397.0
89.055,5.970,0.0,0.0,0.0,4.975,0.0,36864.0,17600744.0,16934355.0,0.0,0.0,9514.0,3731.0
93.0,3.500,0.500,0.0,0.0,3.0,0.0,65536.0,5854606.0,13788019.0,0.0,0.0,5606.0,2614.0
99.0,1.0,0.0,0.0,0.0,0.0,0.0,0.0,370.0,2015.0,0.0,0.0,946.0,1465.0
99.005,0.498,0.498,0.0,0.0,0.0,0.0,6656.0,273.0,919.0,0.0,0.0,1058.0,1450.0
99.497,0.503,0.0,0.0,0.0,0.0,0.0,0.0,409.0,1907.0,0.0,0.0,936.0,1508.0
99.0,0.500,0.500,0.0,0.0,0.0,0.0,57344.0,197.0,829.0,0.0,0.0,778.0,684.0
97.487,1.508,0.0,0.0,0.0,1.005,0.0,4096.0,5751492.0,129031.0,0.0,0.0,2812.0,1476.0
89.055,5.473,0.498,0.0,0.0,4.975,0.0,4096.0,21606202.0,16197791.0,0.0,0.0,10580.0,3919.0
92.500,4.500,0.0,0.0,0.0,3.0,0.0,0.0,12167414.0,14975145.0,0.0,0.0,7364.0,2838.0
95.0,3.0,0.500,0.0,0.0,1.500,0.0,4096.0,4521153.0,9094585.0,0.0,0.0,4043.0,2088.0
95.500,2.500,0.0,0.0,0.0,2.0,0.0,0.0,4306117.0,6008115.0,0.0,0.0,3366.0,1746.0
96.482,3.015,0.503,0.0,0.0,0.0,0.0,96768.0,18553.0,926387.0,0.0,0.0,1277.0,1991.0
94.0,5.0,1.0,0.0,0.0,0.0,0.0,0.0,318.0,1387.0,0.0,0.0,835.0,4851.0
94.500,3.500,2.0,0.0,0.0,0.0,0.0,4096.0,1140.0,3079.0,0.0,0.0,2751.0,8425.0
98.995,1.005,0.0,0.0,0.0,0.0,0.0,0.0,370.0,1519.0,0.0,0.0,1627.0,3033.0
99.005,0.498,0.498,0.0,0.0,0.0,0.0,4096.0,197.0,829.0,0.0,0.0,784.0,685.0
100.0,0.0,0.0,0.0,0.0,0.0,0.0,130048.0,409.0,1907.0,0.0,0.0,807.0,718.0
93.500,3.0,0.500,0.0,0.0,3.0,0.0,4096.0,12012385.0,9041541.0,0.0,0.0,6522.0,2483.0
89.950,8.040,0.0,0.0,0.0,2.010,0.0,0.0,10593068.0,13147599.0,0.0,0.0,7015.0,7639.0
97.015,2.488,0.498,0.0,0.0,0.0,0.0,4096.0,288.0,1349.0,0.0,0.0,1520.0,3807.0
100.0,0.0,0.0,0.0,0.0,0.0,0.0,0.0,318.0,1387.0,0.0,0.0,782.0,675.0
100.0,0.0,0.0,0.0,0.0,0.0,0.0,4096.0,197.0,829.0,0.0,0.0,775.0,682.0
92.040,3.980,0.498,0.0,0.0,3.483,0.0,16384.0,12123825.0,7959427.0,0.0,0.0,6401.0,2623.0
92.462,4.523,0.0,0.0,0.0,3.015,0.0,4096.0,15919087.0,16019559.0,0.0,0.0,9030.0,3130.0
93.500,4.500,0.0,0.0,0.0,2.0,0.0,0.0,5785164.0,8939353.0,0.0,0.0,4593.0,3831.0
98.995,1.005,0.0,0.0,0.0,0.0,0.0,7680.0,136448.0,4517.0,0.0,0.0,898.0,2689.0
99.005,0.498,0.498,0.0,0.0,0.0,0.0,0.0,318.0,1387.0,0.0,0.0,782.0,886.0
100.0,0.0,0.0,0.0,0.0,0.0,0.0,4096.0,197.0,829.0,0.0,0.0,780.0,681.0
100.0,0.0,0.0,0.0,0.0,0.0,0.0,16384.0,409.0,1907.0,0.0,0.0,791.0,698.0
93.035,3.980,0.498,0.0,0.0,2.488,0.0,4096.0,10918407.0,7269583.0,0.0,0.0,6140.0,2703.0
89.055,5.970,0.498,0.0,0.0,4.478,0.0,0.0,17794526.0,17522213.0,0.0,0.0,9220.0,4289.0
91.960,5.528,0.0,0.0,0.0,2.513,0.0,20480.0,9586162.0,12613101.0,0.0,0.0,6516.0,2789.0
98.500,1.0,0.0,0.0,0.0,0.500,0.0,0.0,1176242.0,985251.0,0.0,0.0,1577.0,1582.0
99.497,0.503,0.0,0.0,0.0,0.0,0.0,6656.0,197.0,829.0,0.0,0.0,884.0,1544.0
99.0,0.500,0.500,0.0,0.0,0.0,0.0,49664.0,409.0,1907.0,0.0,0.0,1168.0,1738.0
100.0,0.0,0.0,0.0,0.0,0.0,0.0,4096.0,197.0,829.0,0.0,0.0,779.0,678.0
98.500,0.500,0.500,0.0,0.0,0.500,0.0,36864.0,2519434.0,60985.0,0.0,0.0,1693.0,1109.0
91.542,4.478,0.498,0.0,0.0,3.483,0.0,4096.0,18304354.0,13729681.0,0.0,0.0,8836.0,3226.0
92.500,3.500,0.0,0.0,0.0,4.0,0.0,0.0,13688302.0,15690007.0,0.0,0.0,8457.0,3180.0
93.467,4.020,0.503,0.0,0.0,2.010,0.0,57344.0,8389991.0,10876213.0,0.0,0.0,5854.0,2786.0
97.500,1.0,0.500,0.0,0.0,1.0,0.0,0.0,5079981.0,5850761.0,0.0,0.0,3979.0,2565.0
93.500,5.500,0.500,0.0,0.0,0.500,0.0,16384.0,391157.0,1105059.0,0.0,0.0,1346.0,2409.0
95.477,3.518,1.005,0.0,0.0,0.0,0.0,0.0,19585.0,3408.0,0.0,0.0,1186.0,3517.0
95.500,3.0,1.500,0.0,0.0,0.0,0.0,4096.0,1140.0,3079.0,0.0,0.0,1902.0,7790.0
96.500,3.0,0.500,0.0,0.0,0.0,0.0,0.0,370.0,1519.0,0.0,0.0,2288.0,5278.0
99.497,0.503,0.0,0.0,0.0,0.0,0.0,86016.0,197.0,829.0,0.0,0.0,761.0,660.0
100.0,0.0,0.0,0.0,0.0,0.0,0.0,135680.0,409.0,1907.0,0.0,0.0,796.0,695.0
95.500,2.500,0.500,0.0,0.0,1.500,0.0,46080.0,6842973.0,4509067.0,0.0,0.0,3963.0,1777.0
90.0,6.0,0.0,0.0,0.0,4.0,0.0,0.0,15742592.0,17653583.0,0.0,0.0,9291.0,6483.0
96.482,3.015,0.503,0.0,0.0,0.0,0.0,4096.0,288.0,1349.0,0.0,0.0,2035.0,5598.0
100.0,0.0,0.0,0.0,0.0,0.0,0.0,0.0,394.0,1477.0,0.0,0.0,780.0,672.0
98.515,0.990,0.495,0.0,0.0,0.0,0.0,16384.0,446.0,1409.0,0.0,0.0,775.0,702.0
96.482,1.508,0.0,0.0,0.0,2.010,0.0,0.0,7462244.0,4362697.0,0.0,0.0,4209.0,1861.0
88.442,7.538,0.0,0.0,0.0,4.020,0.0,4096.0,18693491.0,15615093.0,0.0,0.0,10025.0,3838.0
91.0,6.500,0.500,0.0,0.0,2.0,0.0,0.0,7782826.0,12970787.0,0.0,0.0,6029.0,3882.0
98.507,1.493,0.0,0.0,0.0,0.0,0.0,6656.0,404.0,1937.0,0.0,0.0,916.0,2070.0
100.0,0.0,0.0,0.0,0.0,0.0,0.0,20480.0,394.0,1477.0,0.0,0.0,802.0,962.0
100.0,0.0,0.0,0.0,0.0,0.0,0.0,4096.0,197.0,829.0,0.0,0.0,784.0,690.0
99.005,0.0,0.995,0.0,0.0,0.0,0.0,0.0,409.0,1907.0,0.0,0.0,792.0,698.0
95.025,2.488,0.498,0.0,0.0,1.990,0.0,4096.0,8986277.0,3735633.0,0.0,0.0,4427.0,2096.0
91.500,5.500,0.0,0.0,0.0,3.0,0.0,0.0,17234182.0,16465651.0,0.0,0.0,9100.0,3908.0
91.960,4.020,0.0,0.0,0.0,4.020,0.0,20480.0,11400332.0,16477871.0,0.0,0.0,8026.0,2876.0
98.500,0.500,0.0,0.0,0.0,1.0,0.0,36864.0,1867598.0,1692447.0,0.0,0.0,1845.0,1586.0
99.0,1.0,0.0,0.0,0.0,0.0,0.0,6656.0,273.0,919.0,0.0,0.0,1051.0,1656.0
97.0,2.500,0.500,0.0,0.0,0.0,0.0,0.0,409.0,1907.0,0.0,0.0,841.0,2223.0
100.0,0.0,0.0,0.0,0.0,0.0,0.0,4096.0,197.0,829.0,0.0,0.0,785.0,680.0
99.502,0.0,0.498,0.0,0.0,0.0,0.0,0.0,868022.0,20263.0,0.0,0.0,1014.0,763.0
90.955,5.025,0.0,0.0,0.0,4.020,0.0,4096.0,16424672.0,7872791.0,0.0,0.0,7057.0,2693.0
89.950,4.523,0.0,0.0,0.0,5.528,0.0,36864.0,15174568.0,17308491.0,0.0,0.0,8791.0,2991.0
94.030,3.483,0.0,0.0,0.0,2.488,0.0,4096.0,10482959.0,14310059.0,0.0,0.0,6714.0,2896.0
96.985,1.005,0.503,0.0,0.0,1.508,0.0,0.0,3860873.0,3920731.0,0.0,0.0,3134.0,1812.0
95.025,3.980,0.498,0.0,0.0,0.498,0.0,64000.0,1564985.0,3906177.0,0.0,0.0,2301.0,2390.0
95.500,3.500,1.0,0.0,0.0,0.0,0.0,0.0,394.0,1477.0,0.0,0.0,1104.0,2201.0
92.462,4.523,3.015,0.0,0.0,0.0,0.0,4096.0,1088.0,3013.0,0.0,0.0,1264.0,7549.0
95.477,4.020,0.503,0.0,0.0,0.0,0.0,139264.0,370.0,1519.0,0.0,0.0,2805.0,7060.0
99.500,0.500,0.0,0.0,0.0,0.0,0.0,4096.0,197.0,829.0,0.0,0.0,770.0,664.0
99.500,0.0,0.500,0.0,0.0,0.0,0.0,44032.0,409.0,1907.0,0.0,0.0,785.0,705.0
98.500,1.500,0.0,0.0,0.0,0.0,0.0,4096.0,2690137.0,1845247.0,0.0,0.0,2172.0,1146.0
88.442,6.030,0.503,0.0,0.0,5.025,0.0,0.0,19682972.0,18903413.0,0.0,0.0,9682.0,4854.0
95.522,3.980,0.0,0.0,0.0,0.498,0.0,4096.0,229488.0,1407881.0,0.0,0.0,2863.0,8057.0
99.497,0.0,0.503,0.0,0.0,0.0,0.0,28672.0,318.0,1387.0,0.0,0.0,797.0,688.0
99.497,0.0,0.503,0.0,0.0,0.0,0.0,102400.0,197.0,829.0,0.0,0.0,811.0,681.0
98.010,0.995,0.498,0.0,0.0,0.498,0.0,0.0,2803389.0,595701.0,0.0,0.0,1699.0,1001.0
88.0,8.500,0.0,0.0,0.0,3.500,0.0,4096.0,18805315.0,15746959.0,0.0,0.0,9561.0,3510.0
89.500,5.500,0.500,0.0,0.0,4.500,0.0,0.0,11530132.0,15359721.0,0.0,0.0,7734.0,3564.0
97.0,2.500,0.0,0.0,0.0,0.500,0.0,7680.0,772308.0,1238187.0,0.0,0.0,1347.0,3169.0
100.0,0.0,0.0,0.0,0.0,0.0,0.0,16384.0,318.0,1387.0,0.0,0.0,844.0,1094.0
99.0,0.500,0.500,0.0,0.0,0.0,0.0,4096.0,197.0,829.0,0.0,0.0,785.0,702.0
99.005,0.498,0.498,0.0,0.0,0.0,0.0,0.0,409.0,1907.0,0.0,0.0,788.0,686.0
98.492,1.508,0.0,0.0,0.0,0.0,0.0,0.0,4296465.0,454623.0,0.0,0.0,1957.0,1096.0
91.500,5.0,0.0,0.0,0.0,3.500,0.0,4096.0,15624974.0,13439795.0,0.0,0.0,8264.0,3958.0
92.965,4.020,0.0,0.0,0.0,3.015,0.0,0.0,14264840.0,18483631.0,0.0,0.0,8922.0,3477.0
95.0,2.0,0.500,0.0,0.0,2.500,0.0,40960.0,5067866.0,6011373.0,0.0,0.0,3649.0,2035.0
98.507,0.995,0.498,0.0,0.0,0.0,0.0,0.0,204437.0,5647.0,0.0,0.0,1002.0,1580.0
99.0,1.0,0.0,0.0,0.0,0.0,0.0,15360.0,409.0,1907.0,0.0,0.0,1059.0,1353.0
99.0,1.0,0.0,0.0,0.0,0.0,0.0,0.0,197.0,829.0,0.0,0.0,848.0,1230.0
99.0,0.0,0.500,0.0,0.0,0.500,0.0,20480.0,953542.0,24289.0,0.0,0.0,1035.0,808.0
94.0,3.0,0.0,0.0,0.0,3.0,0.0,0.0,9657217.0,1662868.0,0.0,0.0,3658.0,1781.0
89.447,5.025,0.0,0.0,0.0,5.528,0.0,49152.0,18125002.0,21101949.0,0.0,0.0,9805.0,3595.0
91.960,3.015,0.0,0.0,0.0,5.025,0.0,0.0,11610161.0,13554041.0,0.0,0.0,7249.0,3158.0
96.020,1.990,0.498,0.0,0.0,1.493,0.0,4096.0,5187639.0,6682509.0,0.0,0.0,3853.0,2105.0
94.975,5.025,0.0,0.0,0.0,0.0,0.0,0.0,2842893.0,4291661.0,0.0,0.0,2537.0,1410.0
98.507,0.995,0.498,0.0,0.0,0.0,0.0,8192.0,19585.0,3408.0,0.0,0.0,1014.0,1751.0
95.980,3.518,0.503,0.0,0.0,0.0,0.0,0.0,288.0,1349.0,0.0,0.0,1307.0,5662.0
92.537,5.473,1.990,0.0,0.0,0.0,0.0,61440.0,1170.0,3117.0,0.0,0.0,3237.0,8116.0
98.010,0.995,0.995,0.0,0.0,0.0,0.0,0.0,249.0,961.0,0.0,0.0,1118.0,1699.0
99.500,0.500,0.0,0.0,0.0,0.0,0.0,123392.0,409.0,1907.0,0.0,0.0,825.0,717.0
99.500,0.0,0.500,0.0,0.0,0.0,0.0,37888.0,68305.0,2983.0,0.0,0.0,816.0,705.0
90.500,5.500,0.0,0.0,0.0,4.0,0.0,4096.0,17703936.0,14008955.0,0.0,0.0,8653.0,3402.0
92.965,5.528,0.0,0.0,0.0,1.508,0.0,98304.0,4830304.0,8145891.0,0.0,0.0,5697.0,8392.0
99.0,1.0,0.0,0.0,0.0,0.0,0.0,4096.0,197.0,903.0,0.0,0.0,1042.0,1803.0
99.005,0.498,0.498,0.0,0.0,0.0,0.0,4096.0,567.0,1893.0,0.0,0.0,818.0,761.0
99.497,0.503,0.0,0.0,0.0,0.0,0.0,4096.0,136697.0,5625.0,0.0,0.0,919.0,859.0
89.500,5.0,0.0,0.0,0.0,5.500,0.0,0.0,16540082.0,11482133.0,0.0,0.0,8218.0,3213.0
91.960,4.020,0.0,0.0,0.0,4.020,0.0,4096.0,14400285.0,17725657.0,0.0,0.0,8746.0,3168.0
96.500,2.500,0.0,0.0,0.0,1.0,0.0,32768.0,2859497.0,3725357.0,0.0,0.0,2686.0,3919.0
99.005,0.498,0.498,0.0,0.0,0.0,0.0,97280.0,273.0,919.0,0.0,0.0,895.0,1055.0
100.0,0.0,0.0,0.0,0.0,0.0,0.0,0.0,318.0,1387.0,0.0,0.0,786.0,761.0
99.500,0.500,0.0,0.0,0.0,0.0,0.0,4096.0,288.0,1349.0,0.0,0.0,791.0,692.0
99.500,0.0,0.500,0.0,0.0,0.0,0.0,0.0,1361918.0,33595.0,0.0,0.0,1193.0,887.0
92.0,5.0,0.0,0.0,0.0,3.0,0.0,45056.0,12984779.0,8541929.0,0.0,0.0,6641.0,3300.0
90.0,4.500,0.500,0.0,0.0,5.0,0.0,4096.0,15683431.0,19591649.0,0.0,0.0,9512.0,3891.0
93.500,3.0,0.0,0.0,0.0,3.500,0.0,4096.0,9174841.0,10223941.0,0.0,0.0,5977.0,2550.0
99.497,0.503,0.0,0.0,0.0,0.0,0.0,0.0,272846.0,7393.0,0.0,0.0,880.0,1599.0
99.502,0.0,0.498,0.0,0.0,0.0,0.0,6656.0,288.0,1349.0,0.0,0.0,961.0,1288.0
99.0,1.0,0.0,0.0,0.0,0.0,0.0,0.0,394.0,1477.0,0.0,0.0,1034.0,1750.0
100.0,0.0,0.0,0.0,0.0,0.0,0.0,49152.0,197.0,829.0,0.0,0.0,786.0,692.0
97.0,1.0,0.500,0.0,0.0,1.500,0.0,0.0,6059425.0,145061.0,0.0,0.0,2657.0,1597.0
90.452,5.025,0.0,0.0,0.0,4.523,0.0,4096.0,18357401.0,18457653.0,0.0,0.0,10129.0,3760.0
93.532,3.980,0.0,0.0,0.0,2.488,0.0,0.0,12628572.0,15320377.0,0.0,0.0,8204.0,3124.0
95.477,2.513,0.503,0.0,0.0,1.508,0.0,4096.0,6476618.0,6476051.0,0.0,0.0,4603.0,2329.0
94.030,4.478,0.0,0.0,0.0,1.493,0.0,16384.0,4513896.0,6947871.0,0.0,0.0,3907.0,2259.0
97.990,1.508,0.503,0.0,0.0,0.0,0.0,31232.0,358235.0,8617.0,0.0,0.0,1338.0,1695.0
94.500,4.500,1.0,0.0,0.0,0.0,0.0,0.0,409.0,1907.0,0.0,0.0,1536.0,4497.0
86.700,3.448,9.852,0.0,0.0,0.0,0.0,4096.0,1049.0,2561.0,0.0,0.0,2745.0,6953.0
96.500,3.0,0.500,0.0,0.0,0.0,0.0,0.0,370.0,1519.0,0.0,0.0,1857.0,3695.0
100.0,0.0,0.0,0.0,0.0,0.0,0.0,49152.0,288.0,1349.0,0.0,0.0,798.0,723.0
99.005,0.498,0.498,0.0,0.0,0.0,0.0,77824.0,318.0,1387.0,0.0,0.0,789.0,702.0
95.980,2.010,0.0,0.0,0.0,2.010,0.0,4096.0,9665301.0,7996611.0,0.0,0.0,5467.0,2145.0
89.500,6.0,0.0,0.0,0.0,4.500,0.0,0.0,12930571.0,14128273.0,0.0,0.0,7710.0,7135.0
97.990,2.010,0.0,0.0,0.0,0.0,0.0,4096.0,197.0,829.0,0.0,0.0,1400.0,4400.0
99.502,0.0,0.498,0.0,0.0,0.0,0.0,49152.0,318.0,1387.0,0.0,0.0,755.0,650.0
100.0,0.0,0.0,0.0,0.0,0.0,0.0,4096.0,288.0,1349.0,0.0,0.0,758.0,662.0
93.532,3.980,0.498,0.0,0.0,1.990,0.0,28672.0,9968372.0,7023123.0,0.0,0.0,5885.0,2272.0
87.500,7.500,0.0,0.0,0.0,5.0,0.0,4096.0,17967913.0,15725113.0,0.0,0.0,10072.0,3455.0
94.472,3.518,0.0,0.0,0.0,2.010,0.0,0.0,6005539.0,10193071.0,0.0,0.0,4921.0,4247.0
99.005,0.995,0.0,0.0,0.0,0.0,0.0,11776.0,197.0,829.0,0.0,0.0,995.0,2241.0
100.0,0.0,0.0,0.0,0.0,0.0,0.0,0.0,318.0,1387.0,0.0,0.0,788.0,864.0
98.500,1.0,0.500,0.0,0.0,0.0,0.0,4096.0,288.0,1349.0,0.0,0.0,789.0,693.0
100.0,0.0,0.0,0.0,0.0,0.0,0.0,20480.0,318.0,1387.0,0.0,0.0,797.0,705.0
92.537,3.980,0.498,0.0,0.0,2.985,0.0,4096.0,9966333.0,5271265.0,0.0,0.0,5423.0,2256.0
88.945,5.528,0.0,0.0,0.0,5.528,0.0,49152.0,18182713.0,16100125.0,0.0,0.0,10318.0,4465.0
93.500,3.0,0.500,0.0,0.0,3.0,0.0,4096.0,9985803.0,17006547.0,0.0,0.0,7402.0,3075.0
97.015,1.990,0.0,0.0,0.0,0.995,0.0,0.0,1328580.0,33397.0,0.0,0.0,1366.0,1626.0
99.0,1.0,0.0,0.0,0.0,0.0,0.0,15360.0,288.0,1349.0,0.0,0.0,825.0,1709.0
98.995,1.005,0.0,0.0,0.0,0.0,0.0,40960.0,318.0,1387.0,0.0,0.0,1080.0,1615.0
99.502,0.0,0.498,0.0,0.0,0.0,0.0,4096.0,197.0,829.0,0.0,0.0,751.0,648.0
99.005,0.498,0.498,0.0,0.0,0.0,0.0,0.0,681261.0,18407.0,0.0,0.0,992.0,767.0
90.452,5.528,0.0,0.0,0.0,4.020,0.0,4096.0,18171859.0,10232495.0,0.0,0.0,8800.0,3169.0
90.955,3.015,0.0,0.0,0.0,6.030,0.0,0.0,15519702.0,16745077.0,0.0,0.0,8558.0,3085.0
92.500,3.0,0.500,0.0,0.0,4.0,0.0,40960.0,7977902.0,11287791.0,0.0,0.0,5649.0,2582.0
95.522,2.488,0.0,0.0,0.0,1.990,0.0,24576.0,4299822.0,5677341.0,0.0,0.0,3512.0,1897.0
95.980,3.518,0.503,0.0,0.0,0.0,0.0,8192.0,1705303.0,3388944.0,0.0,0.0,2076.0,3146.0
96.500,2.500,1.0,0.0,0.0,0.0,0.0,0.0,19482.0,3640.0,0.0,0.0,1175.0,2872.0
88.325,5.076,6.599,0.0,0.0,0.0,0.0,4096.0,1049.0,2561.0,0.0,0.0,1786.0,7322.0
95.980,3.518,0.503,0.0,0.0,0.0,0.0,0.0,370.0,1519.0,0.0,0.0,2577.0,6696.0
99.500,0.500,0.0,0.0,0.0,0.0,0.0,171520.0,288.0,1349.0,0.0,0.0,802.0,731.0
100.0,0.0,0.0,0.0,0.0,0.0,0.0,37888.0,346.0,1429.0,0.0,0.0,785.0,691.0
96.500,2.0,0.500,0.0,0.0,1.0,0.0,4096.0,4546361.0,2877001.0,0.0,0.0,3102.0,1449.0
87.065,6.965,0.498,0.0,0.0,5.473,0.0,0.0,18053983.0,19281309.0,0.0,0.0,10417.0,5340.0
96.500,3.500,0.0,0.0,0.0,0.0,0.0,4096.0,197.0,829.0,0.0,0.0,2492.0,6871.0
99.005,0.498,0.498,0.0,0.0,0.0,0.0,0.0,567.0,1967.0,0.0,0.0,794.0,712.0
100.0,0.0,0.0,0.0,0.0,0.0,0.0,16384.0,537.0,1929.0,0.0,0.0,834.0,728.0
97.500,2.0,0.500,0.0,0.0,0.0,0.0,0.0,4623252.0,1562397.0,0.0,0.0,2825.0,1419.0
87.437,6.030,0.0,0.0,0.0,6.533,0.0,4096.0,18892115.0,15993993.0,0.0,0.0,10039.0,3422.0
91.0,5.0,0.0,0.0,0.0,4.0,0.0,0.0,9919865.0,14328379.0,0.0,0.0,6828.0,2998.0
98.010,1.990,0.0,0.0,0.0,0.0,0.0,64000.0,496101.0,1034753.0,0.0,0.0,1372.0,3251.0
99.497,0.0,0.503,0.0,0.0,0.0,0.0,0.0,318.0,1387.0,0.0,0.0,824.0,988.0
99.500,0.500,0.0,0.0,0.0,0.0,0.0,28672.0,288.0,1349.0,0.0,0.0,781.0,683.0
99.500,0.0,0.500,0.0,0.0,0.0,0.0,0.0,318.0,1387.0,0.0,0.0,765.0,660.0
96.0,2.0,0.500,0.0,0.0,1.500,0.0,4096.0,6349889.0,1185447.0,0.0,0.0,3079.0,1382.0
86.935,6.533,0.0,0.0,0.0,6.533,0.0,4096.0,15644039.0,17234515.0,0.0,0.0,9222.0,4325.0
90.0,4.500,0.0,0.0,0.0,5.500,0.0,4096.0,12004225.0,17595737.0,0.0,0.0,8010.0,2762.0
98.492,0.503,0.0,0.0,0.0,1.005,0.0,45056.0,5454328.0,2367543.0,0.0,0.0,3312.0,2091.0
98.507,0.995,0.498,0.0,0.0,0.0,0.0,6656.0,288.0,1349.0,0.0,0.0,918.0,1793.0
98.995,1.005,0.0,0.0,0.0,0.0,0.0,0.0,318.0,1387.0,0.0,0.0,832.0,1903.0
100.0,0.0,0.0,0.0,0.0,0.0,0.0,61440.0,197.0,829.0,0.0,0.0,907.0,801.0
98.500,1.0,0.500,0.0,0.0,0.0,0.0,0.0,1974833.0,48635.0,0.0,0.0,1474.0,1003.0
92.537,2.985,0.0,0.0,0.0,4.478,0.0,4096.0,10106081.0,6488633.0,0.0,0.0,5366.0,2287.0
91.457,5.025,0.0,0.0,0.0,3.518,0.0,40960.0,18665088.0,18351057.0,0.0,0.0,9693.0,3335.0
91.089,3.960,0.495,0.0,0.0,4.455,0.0,4096.0,11042934.0,14216769.0,0.0,0.0,6913.0,2552.0
95.960,2.020,0.505,0.0,0.0,1.515,0.0,28672.0,2701424.0,1278617.0,0.0,0.0,1952.0,1467.0
93.0,4.500,0.500,0.0,0.0,2.0,0.0,7168.0,3874955.0,6924477.0,0.0,0.0,3443.0,2755.0
98.492,1.508,0.0,0.0,0.0,0.0,0.0,0.0,409.0,1907.0,0.0,0.0,853.0,1760.0
92.965,5.025,2.010,0.0,0.0,0.0,0.0,4096.0,639.0,2363.0,0.0,0.0,1041.0,7656.0
90.050,4.975,4.975,0.0,0.0,0.0,0.0,77824.0,780.0,1717.0,0.0,0.0,3282.0,8296.0
99.497,0.503,0.0,0.0,0.0,0.0,0.0,54272.0,288.0,1349.0,0.0,0.0,806.0,721.0
100.0,0.0,0.0,0.0,0.0,0.0,0.0,0.0,318.0,1387.0,0.0,0.0,792.0,685.0
100.0,0.0,0.0,0.0,0.0,0.0,0.0,4096.0,1344215.0,825685.0,0.0,0.0,1442.0,911.0
88.442,7.538,0.503,0.0,0.0,3.518,0.0,0.0,19091205.0,18746687.0,0.0,0.0,10391.0,3988.0
93.564,5.446,0.495,0.0,0.0,0.495,0.0,36864.0,2148585.0,2621153.0,0.0,0.0,4296.0,8798.0
100.0,0.0,0.0,0.0,0.0,0.0,0.0,4096.0,318.0,1387.0,0.0,0.0,782.0,688.0
100.0,0.0,0.0,0.0,0.0,0.0,0.0,4096.0,288.0,1349.0,0.0,0.0,781.0,676.0
98.0,1.0,0.500,0.0,0.0,0.500,0.0,0.0,1021570.0,26401.0,0.0,0.0,1190.0,860.0
89.0,4.500,0.0,0.0,0.0,6.500,0.0,4096.0,18059555.0,15010459.0,0.0,0.0,9699.0,3389.0
88.945,7.035,0.0,0.0,0.0,4.020,0.0,0.0,12039473.0,14192233.0,0.0,0.0,8013.0,3541.0
95.522,2.985,0.0,0.0,0.0,1.493,0.0,27136.0,2828963.0,3694959.0,0.0,0.0,2596.0,4043.0
99.500,0.0,0.500,0.0,0.0,0.0,0.0,0.0,394.0,1477.0,0.0,0.0,880.0,999.0
99.500,0.500,0.0,0.0,0.0,0.0,0.0,4096.0,288.0,1349.0,0.0,0.0,791.0,725.0
99.500,0.0,0.500,0.0,0.0,0.0,0.0,0.0,318.0,1387.0,0.0,0.0,794.0,692.0
99.495,0.505,0.0,0.0,0.0,0.0,0.0,4096.0,3098123.0,71911.0,0.0,0.0,1976.0,1203.0
91.089,3.960,0.495,0.0,0.0,4.455,0.0,36864.0,12372921.0,11984679.0,0.0,0.0,7654.0,3966.0
91.457,5.025,0.0,0.0,0.0,3.518,0.0,49152.0,15742635.0,18924337.0,0.0,0.0,9475.0,3495.0
94.030,3.980,0.0,0.0,0.0,1.990,0.0,0.0,8234126.0,7411279.0,0.0,0.0,5026.0,2615.0
99.497,0.503,0.0,0.0,0.0,0.0,0.0,6656.0,288.0,1829.0,0.0,0.0,990.0,1662.0
99.0,0.500,0.500,0.0,0.0,0.0,0.0,0.0,318.0,1387.0,0.0,0.0,968.0,1547.0
99.500,0.0,0.500,0.0,0.0,0.0,0.0,8192.0,197.0,829.0,0.0,0.0,1030.0,1315.0
99.0,1.0,0.0,0.0,0.0,0.0,0.0,53248.0,408889.0,11939.0,0.0,0.0,957.0,768.0
96.0,2.0,1.0,0.0,0.0,1.0,0.0,4096.0,7028141.0,952273.0,0.0,0.0,3516.0,1764.0
89.447,5.025,0.0,0.0,0.0,5.528,0.0,0.0,17933078.0,22697073.0,0.0,0.0,10505.0,3734.0
92.500,5.0,0.0,0.0,0.0,2.500,0.0,4096.0,12312694.0,13481705.0,0.0,0.0,7370.0,2752.0
94.975,2.513,0.503,0.0,0.0,2.010,0.0,98304.0,7198418.0,3742815.0,0.0,0.0,4182.0,2232.0
92.537,4.975,0.498,0.0,0.0,1.990,0.0,61440.0,3480719.0,6578073.0,0.0,0.0,3537.0,1796.0
98.492,1.508,0.0,0.0,0.0,0.0,0.0,0.0,19676.0,3928.0,0.0,0.0,1093.0,1606.0
94.0,5.500,0.500,0.0,0.0,0.0,0.0,4096.0,197.0,829.0,0.0,0.0,1034.0,7735.0
70.854,4.523,24.623,0.0,0.0,0.0,0.0,0.0,1118.0,3053.0,0.0,0.0,2565.0,7180.0
96.500,3.0,0.500,0.0,0.0,0.0,0.0,63488.0,340.0,1481.0,0.0,0.0,1515.0,2981.0
100.0,0.0,0.0,0.0,0.0,0.0,0.0,37888.0,318.0,1387.0,0.0,0.0,799.0,704.0
100.0,0.0,0.0,0.0,0.0,0.0,0.0,77824.0,225.0,871.0,0.0,0.0,788.0,683.0
92.574,3.465,0.495,0.0,0.0,3.465,0.0,0.0,13314153.0,10065587.0,0.0,0.0,7004.0,2400.0
88.945,7.538,0.0,0.0,0.0,3.518,0.0,4096.0,9290299.0,12101369.0,0.0,0.0,7541.0,7678.0
97.512,1.990,0.498,0.0,0.0,0.0,0.0,0.0,567.0,1967.0,0.0,0.0,1374.0,3518.0
98.500,1.500,0.0,0.0,0.0,0.0,0.0,4096.0,537.0,1929.0,0.0,0.0,774.0,740.0
100.0,0.0,0.0,0.0,0.0,0.0,0.0,0.0,68450.0,3565.0,0.0,0.0,822.0,713.0
94.030,1.990,0.0,0.0,0.0,3.980,0.0,28672.0,12591571.0,6559781.0,0.0,0.0,6599.0,2966.0
92.500,4.500,0.0,0.0,0.0,3.0,0.0,0.0,16161455.0,15069187.0,0.0,0.0,9341.0,3558.0
94.500,3.500,0.500,0.0,0.0,1.500,0.0,6656.0,5129045.0,11327645.0,0.0,0.0,5050.0,4112.0
99.500,0.500,0.0,0.0,0.0,0.0,0.0,0.0,318.0,1387.0,0.0,0.0,791.0,1661.0
100.0,0.0,0.0,0.0,0.0,0.0,0.0,4096.0,288.0,1349.0,0.0,0.0,812.0,880.0
99.500,0.0,0.0,0.0,0.0,0.500,0.0,0.0,318.0,1387.0,0.0,0.0,784.0,674.0
99.0,0.500,0.500,0.0,0.0,0.0,0.0,20480.0,442691.0,11653.0,0.0,0.0,946.0,753.0
94.500,3.500,0.0,0.0,0.0,2.0,0.0,20480.0,11903263.0,5419373.0,0.0,0.0,6237.0,2940.0
89.500,5.0,0.500,0.0,0.0,5.0,0.0,4096.0,16008205.0,16341519.0,0.0,0.0,9459.0,3902.0
92.0,5.500,0.0,0.0,0.0,2.500,0.0,0.0,10744066.0,14607125.0,0.0,0.0,7065.0,2862.0
98.500,1.0,0.0,0.0,0.0,0.500,0.0,6656.0,378076.0,2021067.0,0.0,0.0,1335.0,1617.0
100.0,0.0,0.0,0.0,0.0,0.0,0.0,0.0,318.0,1387.0,0.0,0.0,779.0,1596.0
98.0,1.500,0.500,0.0,0.0,0.0,0.0,81920.0,285.0,895.0,0.0,0.0,1034.0,1728.0
99.005,0.498,0.498,0.0,0.0,0.0,0.0,0.0,409.0,1907.0,0.0,0.0,796.0,700.0
98.492,0.503,0.0,0.0,0.0,1.005,0.0,4096.0,4967749.0,103327.0,0.0,0.0,2484.0,1253.0
91.045,5.473,0.0,0.0,0.0,3.483,0.0,0.0,16670990.0,12165783.0,0.0,0.0,8407.0,2932.0
90.500,5.0,0.0,0.0,0.0,4.500,0.0,4096.0,13118730.0,16810391.0,0.0,0.0,8467.0,2927.0
93.0,4.0,1.0,0.0,0.0,2.0,0.0,57344.0,9084396.0,11286889.0,0.0,0.0,6304.0,2807.0
95.0,3.0,0.0,0.0,0.0,2.0,0.0,7168.0,4433379.0,5711019.0,0.0,0.0,3532.0,1712.0
96.482,3.015,0.503,0.0,0.0,0.0,0.0,0.0,88303.0,1234901.0,0.0,0.0,1304.0,2613.0
96.985,2.513,0.503,0.0,0.0,0.0,0.0,4096.0,197.0,829.0,0.0,0.0,1171.0,3650.0
87.500,2.0,10.500,0.0,0.0,0.0,0.0,0.0,1170.0,3119.0,0.0,0.0,1567.0,7435.0
97.0,2.500,0.500,0.0,0.0,0.0,0.0,85504.0,288.0,1349.0,0.0,0.0,2476.0,5807.0
100.0,0.0,0.0,0.0,0.0,0.0,0.0,81920.0,257.0,969.0,0.0,0.0,771.0,670.0
99.500,0.0,0.500,0.0,0.0,0.0,0.0,4096.0,258.0,1247.0,0.0,0.0,785.0,679.0
95.522,2.488,0.498,0.0,0.0,1.493,0.0,0.0,4976564.0,4040341.0,0.0,0.0,3380.0,1463.0
89.500,7.500,0.0,0.0,0.0,3.0,0.0,4096.0,17607188.0,18141909.0,0.0,0.0,10259.0,6176.0
96.0,4.0,0.0,0.0,0.0,0.0,0.0,0.0,197.0,829.0,0.0,0.0,2604.0,5638.0
100.0,0.0,0.0,0.0,0.0,0.0,0.0,4096.0,437.0,1949.0,0.0,0.0,767.0,663.0
99.005,0.498,0.498,0.0,0.0,0.0,0.0,12288.0,197.0,829.0,0.0,0.0,779.0,692.0
96.517,1.493,0.498,0.0,0.0,1.493,0.0,4096.0,5852170.0,3733319.0,0.0,0.0,3583.0,1679.0
89.500,3.500,0.0,0.0,0.0,7.0,0.0,0.0,19326894.0,17246531.0,0.0,0.0,10475.0,4048.0
92.462,5.528,0.0,0.0,0.0,2.010,0.0,6656.0,7431974.0,11941945.0,0.0,0.0,5628.0,3683.0
97.512,1.990,0.498,0.0,0.0,0.0,0.0,0.0,1327887.0,32345.0,0.0,0.0,1321.0,2705.0
99.497,0.0,0.503,0.0,0.0,0.0,0.0,4096.0,409.0,1907.0,0.0,0.0,790.0,936.0
100.0,0.0,0.0,0.0,0.0,0.0,0.0,12288.0,197.0,829.0,0.0,0.0,776.0,671.0
99.502,0.498,0.0,0.0,0.0,0.0,0.0,4096.0,318.0,1387.0,0.0,0.0,776.0,673.0
95.455,1.515,0.0,0.0,0.0,3.030,0.0,0.0,8467612.0,4277493.0,0.0,0.0,4416.0,2031.0
90.099,5.446,0.990,0.0,0.0,3.465,0.0,4096.0,16470004.0,16689355.0,0.0,0.0,9461.0,4085.0
94.472,3.015,0.0,0.0,0.0,2.513,0.0,0.0,8934413.0,14508237.0,0.0,0.0,6606.0,2645.0
96.500,2.500,0.0,0.0,0.0,1.0,0.0,6656.0,5602879.0,2931225.0,0.0,0.0,3548.0,2312.0
99.005,0.498,0.498,0.0,0.0,0.0,0.0,32768.0,197.0,829.0,0.0,0.0,956.0,1644.0
98.500,1.0,0.500,0.0,0.0,0.0,0.0,16384.0,318.0,1387.0,0.0,0.0,760.0,1875.0
99.500,0.0,0.500,0.0,0.0,0.0,0.0,0.0,288.0,1349.0,0.0,0.0,762.0,661.0
100.0,0.0,0.0,0.0,0.0,0.0,0.0,4096.0,136530.0,5149.0,0.0,0.0,811.0,695.0
93.500,3.0,0.0,0.0,0.0,3.500,0.0,0.0,14594363.0,7544516.0,0.0,0.0,7220.0,2636.0
90.955,5.025,0.0,0.0,0.0,4.020,0.0,4096.0,15345991.0,19749819.0,0.0,0.0,9910.0,3525.0
92.462,3.518,0.503,0.0,0.0,3.518,0.0,81920.0,9285441.0,9572733.0,0.0,0.0,6319.0,2779.0
92.500,4.0,0.0,0.0,0.0,3.500,0.0,8192.0,6744334.0,6915841.0,0.0,0.0,4715.0,2837.0
93.532,4.478,0.995,0.0,0.0,0.995,0.0,0.0,2292535.0,3543446.0,0.0,0.0,2526.0,3203.0
98.0,1.0,1.0,0.0,0.0,0.0,0.0,4096.0,346.0,1429.0,0.0,0.0,980.0,1245.0
83.417,5.528,11.055,0.0,0.0,0.0,0.0,0.0,535.0,2231.0,0.0,0.0,987.0,7197.0
31.156,6.533,61.809,0.0,0.0,0.503,0.0,178176.0,4180418.0,4190294.0,0.0,0.0,2861.0,2958.0
83.0,13.500,2.500,0.0,0.0,1.0,0.0,39936.0,6055743.0,5732850.0,0.0,0.0,7752.0,15227.0
58.794,6.533,34.673,0.0,0.0,0.0,0.0,4866048.0,13376.0,21638.0,0.0,0.0,1951.0,4776.0
0.0,0.0,100.0,0.0,0.0,0.0,0.0,0.0,340.0,1481.0,0.0,0.0,331.0,579.0
0.503,0.0,99.497,0.0,0.0,0.0,0.0,4096.0,370.0,1489.0,0.0,0.0,335.0,586.0
1.020,0.0,98.980,0.0,0.0,0.0,0.0,8527872.0,446.0,1409.0,0.0,0.0,533.0,639.0
1.508,0.503,97.990,0.0,0.0,0.0,0.0,73728.0,658.0,2487.0,0.0,0.0,424.0,641.0
0.503,0.503,98.995,0.0,0.0,0.0,0.0,4866048.0,197.0,829.0,0.0,0.0,451.0,593.0
0.0,0.0,100.0,0.0,0.0,0.0,0.0,4096.0,318.0,1387.0,0.0,0.0,332.0,579.0
0.503,0.0,99.497,0.0,0.0,0.0,0.0,0.0,288.0,1349.0,0.0,0.0,330.0,574.0
0.0,0.503,99.497,0.0,0.0,0.0,0.0,1327104.0,370.0,1489.0,0.0,0.0,369.0,603.0
0.0,0.0,100.0,0.0,0.0,0.0,0.0,0.0,249.0,961.0,0.0,0.0,328.0,566.0
0.503,0.0,99.497,0.0,0.0,0.0,0.0,24576.0,409.0,1907.0,0.0,0.0,360.0,596.0
0.0,0.0,100.0,0.0,0.0,0.0,0.0,0.0,197.0,829.0,0.0,0.0,308.0,567.0
0.0,0.0,100.0,0.0,0.0,0.0,0.0,4096.0,370.0,1489.0,0.0,0.0,337.0,581.0
0.0,0.0,100.0,0.0,0.0,0.0,0.0,0.0,340.0,1481.0,0.0,0.0,331.0,578.0
0.503,0.0,99.497,0.0,0.0,0.0,0.0,4096.0,370.0,1519.0,0.0,0.0,349.0,580.0
0.0,0.505,99.495,0.0,0.0,0.0,0.0,0.0,197.0,829.0,0.0,0.0,352.0,577.0
0.500,0.500,99.0,0.0,0.0,0.0,0.0,23040.0,409.0,1907.0,0.0,0.0,351.0,596.0
0.0,0.0,100.0,0.0,0.0,0.0,0.0,4608.0,249.0,931.0,0.0,0.0,319.0,572.0
0.503,0.0,99.497,0.0,0.0,0.0,0.0,8192.0,318.0,1387.0,0.0,0.0,333.0,572.0
0.500,0.0,99.500,0.0,0.0,0.0,0.0,0.0,288.0,1349.0,0.0,0.0,325.0,567.0
0.0,0.0,100.0,0.0,0.0,0.0,0.0,4096.0,370.0,1489.0,0.0,0.0,324.0,574.0
